<?xml version="1.0" encoding="utf-8"?>
<TestRecord xmlns:xsi="http://www.w3.org/2001/XMLSchema-instance" xmlns:xsd="http://www.w3.org/2001/XMLSchema">
  <Results>
    <UnitTestResult>
      <TestDate>2013-06-04T17:19:27</TestDate>
      <Passed>3</Passed>
      <Errors>0</Errors>
      <Failures>0</Failures>
      <Inconclusive>0</Inconclusive>
      <NotRunnable>0</NotRunnable>
      <Skipped>0</Skipped>
      <Ignored>0</Ignored>
      <Time />
      <Message>Test successful

Execution time: 0,20ms</Message>
    </UnitTestResult>
  </Results>
  <Tests>
    <TestRecord Name="TaxiService">
      <Results>
        <UnitTestResult>
          <TestDate>2013-06-04T17:19:27</TestDate>
          <Passed>3</Passed>
          <Errors>0</Errors>
          <Failures>0</Failures>
          <Inconclusive>0</Inconclusive>
          <NotRunnable>0</NotRunnable>
          <Skipped>0</Skipped>
          <Ignored>0</Ignored>
          <Time />
          <Message>Test successful

Execution time: 0,19ms</Message>
        </UnitTestResult>
      </Results>
      <Tests>
        <TestRecord Name="Comman">
          <Results>
            <UnitTestResult>
              <TestDate>2013-06-04T17:19:27</TestDate>
              <Passed>3</Passed>
              <Errors>0</Errors>
              <Failures>0</Failures>
              <Inconclusive>0</Inconclusive>
              <NotRunnable>0</NotRunnable>
              <Skipped>0</Skipped>
              <Ignored>0</Ignored>
              <Time />
              <Message>Test successful

Execution time: 0,19ms</Message>
            </UnitTestResult>
          </Results>
          <Tests>
            <TestRecord Name="Test">
              <Results>
                <UnitTestResult>
                  <TestDate>2013-06-04T17:19:27</TestDate>
                  <Passed>3</Passed>
                  <Errors>0</Errors>
                  <Failures>0</Failures>
                  <Inconclusive>0</Inconclusive>
                  <NotRunnable>0</NotRunnable>
                  <Skipped>0</Skipped>
                  <Ignored>0</Ignored>
                  <Time />
                  <Message>Test successful

Execution time: 0,19ms</Message>
                </UnitTestResult>
              </Results>
              <Tests>
                <TestRecord Name="LogFrameworkTest">
                  <Results>
                    <UnitTestResult>
                      <TestDate>2013-06-04T17:19:27</TestDate>
                      <Passed>3</Passed>
                      <Errors>0</Errors>
                      <Failures>0</Failures>
                      <Inconclusive>0</Inconclusive>
                      <NotRunnable>0</NotRunnable>
                      <Skipped>0</Skipped>
                      <Ignored>0</Ignored>
                      <Time />
                      <Message>Test successful

Execution time: 0,19ms</Message>
                    </UnitTestResult>
                  </Results>
                  <Tests>
                    <TestRecord Name="adicionar_excepcao_ao_log">
                      <Results>
                        <UnitTestResult>
                          <TestDate>2013-06-04T17:19:27</TestDate>
                          <Passed>1</Passed>
                          <Errors>0</Errors>
                          <Failures>0</Failures>
                          <Inconclusive>0</Inconclusive>
                          <NotRunnable>0</NotRunnable>
                          <Skipped>0</Skipped>
                          <Ignored>0</Ignored>
                          <Time />
                          <Message>Test successful

Execution time: 0,06ms</Message>
                          <ConsoleOutput />
                          <ConsoleError>log4net:ERROR XmlConfigurator: Failed to find configuration section 'log4net' in the application's .config file. Check your .config file for the &lt;log4net&gt; and &lt;configSections&gt; elements. The configuration section should look like: &lt;section name="log4net" type="log4net.Config.Log4NetConfigurationSectionHandler,log4net" /&gt;
17:22:11,920 ERROR [TestRunnerThread] Teste [(null)]- System.InvalidOperationException: Teste nao suportado
</ConsoleError>
                        </UnitTestResult>
                      </Results>
                    </TestRecord>
                    <TestRecord Name="adicionar_nova_mensagem_ao_log">
                      <Results>
                        <UnitTestResult>
                          <TestDate>2013-06-04T17:19:27</TestDate>
                          <Passed>1</Passed>
                          <Errors>0</Errors>
                          <Failures>0</Failures>
                          <Inconclusive>0</Inconclusive>
                          <NotRunnable>0</NotRunnable>
                          <Skipped>0</Skipped>
                          <Ignored>0</Ignored>
                          <Time />
                          <Message>Test successful

Execution time: 0,00ms</Message>
                          <ConsoleOutput />
                          <ConsoleError>17:22:12,033 WARN  [TestRunnerThread] Teste [(null)]- Test Log Msg...Mensagem tipo Warning
17:22:12,033 INFO  [TestRunnerThread] Teste [(null)]- Test Log Msg...Mensagem tipo default[ERROR]
</ConsoleError>
                        </UnitTestResult>
                      </Results>
                    </TestRecord>
                    <TestRecord Name="obter_log_handler">
                      <Results>
                        <UnitTestResult>
                          <TestDate>2013-06-04T17:19:27</TestDate>
                          <Passed>1</Passed>
                          <Errors>0</Errors>
                          <Failures>0</Failures>
                          <Inconclusive>0</Inconclusive>
                          <NotRunnable>0</NotRunnable>
                          <Skipped>0</Skipped>
                          <Ignored>0</Ignored>
                          <Time />
                          <Message>Test successful

Execution time: 0,02ms</Message>
                          <ConsoleOutput />
                          <ConsoleError />
                        </UnitTestResult>
                      </Results>
                    </TestRecord>
                  </Tests>
                </TestRecord>
              </Tests>
            </TestRecord>
          </Tests>
        </TestRecord>
      </Tests>
    </TestRecord>
  </Tests>
</TestRecord>