<?xml version="1.0" encoding="utf-8"?>
<TestRecord xmlns:xsi="http://www.w3.org/2001/XMLSchema-instance" xmlns:xsd="http://www.w3.org/2001/XMLSchema">
  <Results>
    <UnitTestResult>
      <TestDate>2013-06-04T17:19:27</TestDate>
      <Passed>37</Passed>
      <Errors>0</Errors>
      <Failures>0</Failures>
      <Inconclusive>0</Inconclusive>
      <NotRunnable>0</NotRunnable>
      <Skipped>0</Skipped>
      <Ignored>0</Ignored>
      <Time />
      <Message>Test successful

Execution time: 88,41ms</Message>
    </UnitTestResult>
  </Results>
  <Tests>
    <TestRecord Name="TaxiService">
      <Results>
        <UnitTestResult>
          <TestDate>2013-06-04T17:19:27</TestDate>
          <Passed>37</Passed>
          <Errors>0</Errors>
          <Failures>0</Failures>
          <Inconclusive>0</Inconclusive>
          <NotRunnable>0</NotRunnable>
          <Skipped>0</Skipped>
          <Ignored>0</Ignored>
          <Time />
          <Message>Test successful

Execution time: 88,41ms</Message>
        </UnitTestResult>
      </Results>
      <Tests>
        <TestRecord Name="DataLayer">
          <Results>
            <UnitTestResult>
              <TestDate>2013-06-04T17:19:27</TestDate>
              <Passed>37</Passed>
              <Errors>0</Errors>
              <Failures>0</Failures>
              <Inconclusive>0</Inconclusive>
              <NotRunnable>0</NotRunnable>
              <Skipped>0</Skipped>
              <Ignored>0</Ignored>
              <Time />
              <Message>Test successful

Execution time: 88,41ms</Message>
            </UnitTestResult>
          </Results>
          <Tests>
            <TestRecord Name="Test">
              <Results>
                <UnitTestResult>
                  <TestDate>2013-06-04T17:19:27</TestDate>
                  <Passed>37</Passed>
                  <Errors>0</Errors>
                  <Failures>0</Failures>
                  <Inconclusive>0</Inconclusive>
                  <NotRunnable>0</NotRunnable>
                  <Skipped>0</Skipped>
                  <Ignored>0</Ignored>
                  <Time />
                  <Message>Test successful

Execution time: 88,40ms</Message>
                </UnitTestResult>
              </Results>
              <Tests>
                <TestRecord Name="NHEmpresaRepositoryTest">
                  <Results>
                    <UnitTestResult>
                      <TestDate>2013-06-04T17:19:27</TestDate>
                      <Passed>8</Passed>
                      <Errors>0</Errors>
                      <Failures>0</Failures>
                      <Inconclusive>0</Inconclusive>
                      <NotRunnable>0</NotRunnable>
                      <Skipped>0</Skipped>
                      <Ignored>0</Ignored>
                      <Time />
                      <Message>Test successful

Execution time: 22,40ms</Message>
                    </UnitTestResult>
                  </Results>
                  <Tests>
                    <TestRecord Name="actualizar_propriedades_empresa">
                      <Results>
                        <UnitTestResult>
                          <TestDate>2013-06-04T17:19:27</TestDate>
                          <Passed>1</Passed>
                          <Errors>0</Errors>
                          <Failures>0</Failures>
                          <Inconclusive>0</Inconclusive>
                          <NotRunnable>0</NotRunnable>
                          <Skipped>0</Skipped>
                          <Ignored>0</Ignored>
                          <Time />
                          <Message>Test successful

Execution time: 5,76ms</Message>
                          <ConsoleOutput>NHibernate: SELECT this_.Id as Id0_0_, this_.Designacao as Designacao0_0_, this_.Alvara as Alvara0_0_, this_.Telefone as Telefone0_0_ FROM Empresa this_
NHibernate: INSERT INTO Empresa (Designacao, Alvara, Telefone, Id) VALUES (?p0, ?p1, ?p2, ?p3);?p0 = 'EmpresaTeste' [Type: String (12)], ?p1 = '1234567' [Type: String (7)], ?p2 = '999999999' [Type: String (9)], ?p3 = 528ca39a-dd70-4b73-a7fb-a1d3011d870d [Type: Guid (0)]
NHibernate: UPDATE Empresa SET Designacao = ?p0, Alvara = ?p1, Telefone = ?p2 WHERE Id = ?p3;?p0 = 'teste2' [Type: String (6)], ?p1 = '1234567' [Type: String (7)], ?p2 = '11111111' [Type: String (8)], ?p3 = 528ca39a-dd70-4b73-a7fb-a1d3011d870d [Type: Guid (0)]
NHibernate: SELECT empresa0_.Id as Id0_0_, empresa0_.Designacao as Designacao0_0_, empresa0_.Alvara as Alvara0_0_, empresa0_.Telefone as Telefone0_0_ FROM Empresa empresa0_ WHERE empresa0_.Id=?p0;?p0 = 528ca39a-dd70-4b73-a7fb-a1d3011d870d [Type: Guid (0)]
</ConsoleOutput>
                          <ConsoleError />
                        </UnitTestResult>
                      </Results>
                    </TestRecord>
                    <TestRecord Name="eliminar_entidade_persistida">
                      <Results>
                        <UnitTestResult>
                          <TestDate>2013-06-04T17:19:27</TestDate>
                          <Passed>1</Passed>
                          <Errors>0</Errors>
                          <Failures>0</Failures>
                          <Inconclusive>0</Inconclusive>
                          <NotRunnable>0</NotRunnable>
                          <Skipped>0</Skipped>
                          <Ignored>0</Ignored>
                          <Time />
                          <Message>Test successful

Execution time: 2,44ms</Message>
                          <ConsoleOutput>NHibernate: SELECT this_.Id as Id0_0_, this_.Designacao as Designacao0_0_, this_.Alvara as Alvara0_0_, this_.Telefone as Telefone0_0_ FROM Empresa this_
NHibernate: INSERT INTO Empresa (Designacao, Alvara, Telefone, Id) VALUES (?p0, ?p1, ?p2, ?p3);?p0 = 'Teste3' [Type: String (6)], ?p1 = '1234567' [Type: String (7)], ?p2 = '999999999' [Type: String (9)], ?p3 = 50879a11-5dee-4474-a144-a1d3011d8a1d [Type: Guid (0)]
NHibernate: SELECT this_.Id as Id0_0_, this_.Designacao as Designacao0_0_, this_.Alvara as Alvara0_0_, this_.Telefone as Telefone0_0_ FROM Empresa this_
NHibernate: DELETE FROM Empresa WHERE Id = ?p0;?p0 = 50879a11-5dee-4474-a144-a1d3011d8a1d [Type: Guid (0)]
NHibernate: SELECT this_.Id as Id0_0_, this_.Designacao as Designacao0_0_, this_.Alvara as Alvara0_0_, this_.Telefone as Telefone0_0_ FROM Empresa this_
</ConsoleOutput>
                          <ConsoleError />
                        </UnitTestResult>
                      </Results>
                    </TestRecord>
                    <TestRecord Name="entidade_vazia_nao_altera_a_BD_ao_eliminar">
                      <Results>
                        <UnitTestResult>
                          <TestDate>2013-06-04T17:19:27</TestDate>
                          <Passed>1</Passed>
                          <Errors>0</Errors>
                          <Failures>0</Failures>
                          <Inconclusive>0</Inconclusive>
                          <NotRunnable>0</NotRunnable>
                          <Skipped>0</Skipped>
                          <Ignored>0</Ignored>
                          <Time />
                          <Message>Test successful

Execution time: 2,29ms</Message>
                          <ConsoleOutput>NHibernate: SELECT this_.Id as Id0_0_, this_.Designacao as Designacao0_0_, this_.Alvara as Alvara0_0_, this_.Telefone as Telefone0_0_ FROM Empresa this_
NHibernate: INSERT INTO Empresa (Designacao, Alvara, Telefone, Id) VALUES (?p0, ?p1, ?p2, ?p3);?p0 = 'Teste3' [Type: String (6)], ?p1 = '1234567' [Type: String (7)], ?p2 = '999999999' [Type: String (9)], ?p3 = ea0a9e13-5df0-48ce-b080-a1d3011d8cd1 [Type: Guid (0)]
NHibernate: SELECT this_.Id as Id0_0_, this_.Designacao as Designacao0_0_, this_.Alvara as Alvara0_0_, this_.Telefone as Telefone0_0_ FROM Empresa this_
NHibernate: SELECT this_.Id as Id0_0_, this_.Designacao as Designacao0_0_, this_.Alvara as Alvara0_0_, this_.Telefone as Telefone0_0_ FROM Empresa this_
</ConsoleOutput>
                          <ConsoleError />
                        </UnitTestResult>
                      </Results>
                    </TestRecord>
                    <TestRecord Name="inserir_empresas_duplicadas_provoca_erro">
                      <Results>
                        <UnitTestResult>
                          <TestDate>2013-06-04T17:19:27</TestDate>
                          <Passed>1</Passed>
                          <Errors>0</Errors>
                          <Failures>0</Failures>
                          <Inconclusive>0</Inconclusive>
                          <NotRunnable>0</NotRunnable>
                          <Skipped>0</Skipped>
                          <Ignored>0</Ignored>
                          <Time />
                          <Message>Test successful

Execution time: 2,40ms</Message>
                          <ConsoleOutput>NHibernate: SELECT this_.Id as Id0_0_, this_.Designacao as Designacao0_0_, this_.Alvara as Alvara0_0_, this_.Telefone as Telefone0_0_ FROM Empresa this_
NHibernate: INSERT INTO Empresa (Designacao, Alvara, Telefone, Id) VALUES (?p0, ?p1, ?p2, ?p3);?p0 = 'EmpresaTeste' [Type: String (12)], ?p1 = '1234567' [Type: String (7)], ?p2 = '999999999' [Type: String (9)], ?p3 = 0c094875-e2b8-4910-b570-a1d3011d8fa1 [Type: Guid (0)]
NHibernate: INSERT INTO Empresa (Designacao, Alvara, Telefone, Id) VALUES (?p0, ?p1, ?p2, ?p3);?p0 = 'EmpresaTeste' [Type: String (12)], ?p1 = '1234567' [Type: String (7)], ?p2 = '999999999' [Type: String (9)], ?p3 = 2476fd17-52ff-4761-a85d-a1d3011d8fa1 [Type: Guid (0)]
</ConsoleOutput>
                          <ConsoleError />
                        </UnitTestResult>
                      </Results>
                    </TestRecord>
                    <TestRecord Name="inserir_nova_empresa">
                      <Results>
                        <UnitTestResult>
                          <TestDate>2013-06-04T17:19:27</TestDate>
                          <Passed>1</Passed>
                          <Errors>0</Errors>
                          <Failures>0</Failures>
                          <Inconclusive>0</Inconclusive>
                          <NotRunnable>0</NotRunnable>
                          <Skipped>0</Skipped>
                          <Ignored>0</Ignored>
                          <Time />
                          <Message>Test successful

Execution time: 2,17ms</Message>
                          <ConsoleOutput>NHibernate: SELECT this_.Id as Id0_0_, this_.Designacao as Designacao0_0_, this_.Alvara as Alvara0_0_, this_.Telefone as Telefone0_0_ FROM Empresa this_
NHibernate: INSERT INTO Empresa (Designacao, Alvara, Telefone, Id) VALUES (?p0, ?p1, ?p2, ?p3);?p0 = 'EmpresaTeste' [Type: String (12)], ?p1 = '1234567' [Type: String (7)], ?p2 = '999999999' [Type: String (9)], ?p3 = c48c451f-ff0f-494c-98eb-a1d3011d9230 [Type: Guid (0)]
NHibernate: SELECT this_.Id as Id0_0_, this_.Designacao as Designacao0_0_, this_.Alvara as Alvara0_0_, this_.Telefone as Telefone0_0_ FROM Empresa this_
</ConsoleOutput>
                          <ConsoleError />
                        </UnitTestResult>
                      </Results>
                    </TestRecord>
                    <TestRecord Name="ler_empresa_previamente_persistida">
                      <Results>
                        <UnitTestResult>
                          <TestDate>2013-06-04T17:19:27</TestDate>
                          <Passed>1</Passed>
                          <Errors>0</Errors>
                          <Failures>0</Failures>
                          <Inconclusive>0</Inconclusive>
                          <NotRunnable>0</NotRunnable>
                          <Skipped>0</Skipped>
                          <Ignored>0</Ignored>
                          <Time />
                          <Message>Test successful

Execution time: 2,32ms</Message>
                          <ConsoleOutput>NHibernate: SELECT this_.Id as Id0_0_, this_.Designacao as Designacao0_0_, this_.Alvara as Alvara0_0_, this_.Telefone as Telefone0_0_ FROM Empresa this_
NHibernate: INSERT INTO Empresa (Designacao, Alvara, Telefone, Id) VALUES (?p0, ?p1, ?p2, ?p3);?p0 = 'EmpresaTeste' [Type: String (12)], ?p1 = '1234567' [Type: String (7)], ?p2 = '999999999' [Type: String (9)], ?p3 = 484cc3ac-63f1-4ae8-a3b6-a1d3011d94e8 [Type: Guid (0)]
NHibernate: SELECT empresa0_.Id as Id0_0_, empresa0_.Designacao as Designacao0_0_, empresa0_.Alvara as Alvara0_0_, empresa0_.Telefone as Telefone0_0_ FROM Empresa empresa0_ WHERE empresa0_.Id=?p0;?p0 = 484cc3ac-63f1-4ae8-a3b6-a1d3011d94e8 [Type: Guid (0)]
</ConsoleOutput>
                          <ConsoleError />
                        </UnitTestResult>
                      </Results>
                    </TestRecord>
                    <TestRecord Name="listar_empresas_na_BD">
                      <Results>
                        <UnitTestResult>
                          <TestDate>2013-06-04T17:19:27</TestDate>
                          <Passed>1</Passed>
                          <Errors>0</Errors>
                          <Failures>0</Failures>
                          <Inconclusive>0</Inconclusive>
                          <NotRunnable>0</NotRunnable>
                          <Skipped>0</Skipped>
                          <Ignored>0</Ignored>
                          <Time />
                          <Message>Test successful

Execution time: 2,33ms</Message>
                          <ConsoleOutput>NHibernate: SELECT this_.Id as Id0_0_, this_.Designacao as Designacao0_0_, this_.Alvara as Alvara0_0_, this_.Telefone as Telefone0_0_ FROM Empresa this_
NHibernate: INSERT INTO Empresa (Designacao, Alvara, Telefone, Id) VALUES (?p0, ?p1, ?p2, ?p3);?p0 = 'EmpresaTeste' [Type: String (12)], ?p1 = '1234567' [Type: String (7)], ?p2 = '999999999' [Type: String (9)], ?p3 = 13b36cc4-9e02-45c0-9702-a1d3011d97a3 [Type: Guid (0)]
NHibernate: SELECT this_.Id as Id0_0_, this_.Designacao as Designacao0_0_, this_.Alvara as Alvara0_0_, this_.Telefone as Telefone0_0_ FROM Empresa this_
NHibernate: SELECT this_.Id as Id0_0_, this_.Designacao as Designacao0_0_, this_.Alvara as Alvara0_0_, this_.Telefone as Telefone0_0_ FROM Empresa this_
</ConsoleOutput>
                          <ConsoleError />
                        </UnitTestResult>
                      </Results>
                    </TestRecord>
                    <TestRecord Name="validar_existencia_duma_entidade_persistida">
                      <Results>
                        <UnitTestResult>
                          <TestDate>2013-06-04T17:19:27</TestDate>
                          <Passed>1</Passed>
                          <Errors>0</Errors>
                          <Failures>0</Failures>
                          <Inconclusive>0</Inconclusive>
                          <NotRunnable>0</NotRunnable>
                          <Skipped>0</Skipped>
                          <Ignored>0</Ignored>
                          <Time />
                          <Message>Test successful

Execution time: 2,55ms</Message>
                          <ConsoleOutput>NHibernate: SELECT this_.Id as Id0_0_, this_.Designacao as Designacao0_0_, this_.Alvara as Alvara0_0_, this_.Telefone as Telefone0_0_ FROM Empresa this_
NHibernate: INSERT INTO Empresa (Designacao, Alvara, Telefone, Id) VALUES (?p0, ?p1, ?p2, ?p3);?p0 = 'EmpresaTeste' [Type: String (12)], ?p1 = '1234567' [Type: String (7)], ?p2 = '999999999' [Type: String (9)], ?p3 = 4b48a6d2-adb1-41fc-8f44-a1d3011d9aa1 [Type: Guid (0)]
NHibernate: SELECT empresa0_.Id as Id0_0_, empresa0_.Designacao as Designacao0_0_, empresa0_.Alvara as Alvara0_0_, empresa0_.Telefone as Telefone0_0_ FROM Empresa empresa0_ WHERE empresa0_.Id=?p0;?p0 = 4b48a6d2-adb1-41fc-8f44-a1d3011d9aa1 [Type: Guid (0)]
</ConsoleOutput>
                          <ConsoleError />
                        </UnitTestResult>
                      </Results>
                    </TestRecord>
                  </Tests>
                </TestRecord>
                <TestRecord Name="NHServicoTaxiRepositoryTest">
                  <Results>
                    <UnitTestResult>
                      <TestDate>2013-06-04T17:19:27</TestDate>
                      <Passed>3</Passed>
                      <Errors>0</Errors>
                      <Failures>0</Failures>
                      <Inconclusive>0</Inconclusive>
                      <NotRunnable>0</NotRunnable>
                      <Skipped>0</Skipped>
                      <Ignored>0</Ignored>
                      <Time />
                      <Message>Test successful

Execution time: 6,72ms</Message>
                    </UnitTestResult>
                  </Results>
                  <Tests>
                    <TestRecord Name="inserir_novo_servico_taxi">
                      <Results>
                        <UnitTestResult>
                          <TestDate>2013-06-04T17:19:27</TestDate>
                          <Passed>1</Passed>
                          <Errors>0</Errors>
                          <Failures>0</Failures>
                          <Inconclusive>0</Inconclusive>
                          <NotRunnable>0</NotRunnable>
                          <Skipped>0</Skipped>
                          <Ignored>0</Ignored>
                          <Time />
                          <Message>Test successful

Execution time: 2,21ms</Message>
                          <ConsoleOutput>NHibernate: INSERT INTO Empresa (Designacao, Alvara, Telefone, Id) VALUES (?p0, ?p1, ?p2, ?p3);?p0 = 'EmpresaTeste' [Type: String (12)], ?p1 = '1111111' [Type: String (7)], ?p2 = '222223' [Type: String (6)], ?p3 = 476ab6c0-a182-4371-87e8-a1d3011d9d25 [Type: Guid (0)]
NHibernate: INSERT INTO Zona (Codigo, Designacao, Contigente, Id) VALUES (?p0, ?p1, ?p2, ?p3);?p0 = 'LSB' [Type: String (3)], ?p1 = 'Lisboa' [Type: String (6)], ?p2 = 100 [Type: Int32 (0)], ?p3 = 6758f72b-a413-4f2c-ad40-a1d3011d9d26 [Type: Guid (0)]
NHibernate: INSERT INTO Taxi (Matricula, Licenca, Lugares, Ano, EmpresaID, ZonaID, Id) VALUES (?p0, ?p1, ?p2, ?p3, ?p4, ?p5, ?p6);?p0 = '222-Teste' [Type: String (9)], ?p1 = 'licteste' [Type: String (8)], ?p2 = 4 [Type: Int32 (0)], ?p3 = 01-01-0001 00:00:00 [Type: DateTime (0)], ?p4 = 476ab6c0-a182-4371-87e8-a1d3011d9d25 [Type: Guid (0)], ?p5 = 6758f72b-a413-4f2c-ad40-a1d3011d9d26 [Type: Guid (0)], ?p6 = 990cb53f-5ffe-44a6-b5c5-a1d3011d9d28 [Type: Guid (0)]
NHibernate: INSERT INTO User (UserName, PassWord, Nome, Idade, CAP, EmpresaID, UserType, Id) VALUES (?p0, ?p1, ?p2, ?p3, ?p4, ?p5, 'TaxiService.Domain.Entities.Taxista', ?p6);?p0 = 'ttaTeste' [Type: String (8)], ?p1 = '12345' [Type: String (5)], ?p2 = 'TaxistaTeste' [Type: String (12)], ?p3 = 10 [Type: Int32 (0)], ?p4 = '1224556' [Type: String (7)], ?p5 = 476ab6c0-a182-4371-87e8-a1d3011d9d25 [Type: Guid (0)], ?p6 = 81ad36f3-c389-4bb4-9d76-a1d3011d9d2e [Type: Guid (0)]
NHibernate: SELECT this_.Id as Id4_0_, this_.InicioServico as InicioSe2_4_0_, this_.FimServico as FimServico4_0_, this_.TaxiID as TaxiID4_0_, this_.TaxistaID as TaxistaID4_0_ FROM ServicoTaxi this_
NHibernate: INSERT INTO ServicoTaxi (InicioServico, FimServico, TaxiID, TaxistaID, Id) VALUES (?p0, ?p1, ?p2, ?p3, ?p4);?p0 = 04-06-2013 17:19:53 [Type: DateTime (0)], ?p1 = 01-01-0001 00:00:00 [Type: DateTime (0)], ?p2 = 990cb53f-5ffe-44a6-b5c5-a1d3011d9d28 [Type: Guid (0)], ?p3 = 81ad36f3-c389-4bb4-9d76-a1d3011d9d2e [Type: Guid (0)], ?p4 = a9291f05-091c-4548-b178-a1d3011d9d2f [Type: Guid (0)]
NHibernate: SELECT this_.Id as Id4_0_, this_.InicioServico as InicioSe2_4_0_, this_.FimServico as FimServico4_0_, this_.TaxiID as TaxiID4_0_, this_.TaxistaID as TaxistaID4_0_ FROM ServicoTaxi this_
NHibernate: SELECT taxi0_.Id as Id2_0_, taxi0_.Matricula as Matricula2_0_, taxi0_.Licenca as Licenca2_0_, taxi0_.Lugares as Lugares2_0_, taxi0_.Ano as Ano2_0_, taxi0_.EmpresaID as EmpresaID2_0_, taxi0_.ZonaID as ZonaID2_0_ FROM Taxi taxi0_ WHERE taxi0_.Id=?p0;?p0 = 990cb53f-5ffe-44a6-b5c5-a1d3011d9d28 [Type: Guid (0)]
NHibernate: SELECT taxista0_.Id as Id1_0_, taxista0_.UserName as UserName1_0_, taxista0_.PassWord as PassWord1_0_, taxista0_.Nome as Nome1_0_, taxista0_.Idade as Idade1_0_, taxista0_.CAP as CAP1_0_, taxista0_.EmpresaID as EmpresaID1_0_ FROM User taxista0_ WHERE taxista0_.Id=?p0 and taxista0_.UserType='TaxiService.Domain.Entities.Taxista';?p0 = 81ad36f3-c389-4bb4-9d76-a1d3011d9d2e [Type: Guid (0)]
</ConsoleOutput>
                          <ConsoleError />
                        </UnitTestResult>
                      </Results>
                    </TestRecord>
                    <TestRecord Name="listar_servico_taxis_persistidos">
                      <Results>
                        <UnitTestResult>
                          <TestDate>2013-06-04T17:19:27</TestDate>
                          <Passed>1</Passed>
                          <Errors>0</Errors>
                          <Failures>0</Failures>
                          <Inconclusive>0</Inconclusive>
                          <NotRunnable>0</NotRunnable>
                          <Skipped>0</Skipped>
                          <Ignored>0</Ignored>
                          <Time />
                          <Message>Test successful

Execution time: 2,27ms</Message>
                          <ConsoleOutput>NHibernate: INSERT INTO Empresa (Designacao, Alvara, Telefone, Id) VALUES (?p0, ?p1, ?p2, ?p3);?p0 = 'EmpresaTeste' [Type: String (12)], ?p1 = '1111111' [Type: String (7)], ?p2 = '222223' [Type: String (6)], ?p3 = c90c7104-a4fc-4ecb-bec1-a1d3011d9fe1 [Type: Guid (0)]
NHibernate: INSERT INTO Zona (Codigo, Designacao, Contigente, Id) VALUES (?p0, ?p1, ?p2, ?p3);?p0 = 'LSB' [Type: String (3)], ?p1 = 'Lisboa' [Type: String (6)], ?p2 = 100 [Type: Int32 (0)], ?p3 = ed724dff-c489-4723-961b-a1d3011d9fe1 [Type: Guid (0)]
NHibernate: INSERT INTO Taxi (Matricula, Licenca, Lugares, Ano, EmpresaID, ZonaID, Id) VALUES (?p0, ?p1, ?p2, ?p3, ?p4, ?p5, ?p6);?p0 = '222-Teste' [Type: String (9)], ?p1 = 'licteste' [Type: String (8)], ?p2 = 4 [Type: Int32 (0)], ?p3 = 01-01-0001 00:00:00 [Type: DateTime (0)], ?p4 = c90c7104-a4fc-4ecb-bec1-a1d3011d9fe1 [Type: Guid (0)], ?p5 = ed724dff-c489-4723-961b-a1d3011d9fe1 [Type: Guid (0)], ?p6 = 6208e0b9-6549-4551-bc45-a1d3011d9fe5 [Type: Guid (0)]
NHibernate: INSERT INTO User (UserName, PassWord, Nome, Idade, CAP, EmpresaID, UserType, Id) VALUES (?p0, ?p1, ?p2, ?p3, ?p4, ?p5, 'TaxiService.Domain.Entities.Taxista', ?p6);?p0 = 'ttaTeste' [Type: String (8)], ?p1 = '12345' [Type: String (5)], ?p2 = 'TaxistaTeste' [Type: String (12)], ?p3 = 10 [Type: Int32 (0)], ?p4 = '1224556' [Type: String (7)], ?p5 = c90c7104-a4fc-4ecb-bec1-a1d3011d9fe1 [Type: Guid (0)], ?p6 = fbe57014-2d10-45eb-b1ad-a1d3011d9fe6 [Type: Guid (0)]
NHibernate: INSERT INTO ServicoTaxi (InicioServico, FimServico, TaxiID, TaxistaID, Id) VALUES (?p0, ?p1, ?p2, ?p3, ?p4);?p0 = 04-06-2013 17:19:55 [Type: DateTime (0)], ?p1 = 01-01-0001 00:00:00 [Type: DateTime (0)], ?p2 = 6208e0b9-6549-4551-bc45-a1d3011d9fe5 [Type: Guid (0)], ?p3 = fbe57014-2d10-45eb-b1ad-a1d3011d9fe6 [Type: Guid (0)], ?p4 = a0e46cc7-d806-4727-973d-a1d3011d9fe7 [Type: Guid (0)]
NHibernate: SELECT this_.Id as Id4_0_, this_.InicioServico as InicioSe2_4_0_, this_.FimServico as FimServico4_0_, this_.TaxiID as TaxiID4_0_, this_.TaxistaID as TaxistaID4_0_ FROM ServicoTaxi this_
NHibernate: SELECT this_.Id as Id4_0_, this_.InicioServico as InicioSe2_4_0_, this_.FimServico as FimServico4_0_, this_.TaxiID as TaxiID4_0_, this_.TaxistaID as TaxistaID4_0_ FROM ServicoTaxi this_
</ConsoleOutput>
                          <ConsoleError />
                        </UnitTestResult>
                      </Results>
                    </TestRecord>
                    <TestRecord Name="remover_servico_taxi_persistido">
                      <Results>
                        <UnitTestResult>
                          <TestDate>2013-06-04T17:19:27</TestDate>
                          <Passed>1</Passed>
                          <Errors>0</Errors>
                          <Failures>0</Failures>
                          <Inconclusive>0</Inconclusive>
                          <NotRunnable>0</NotRunnable>
                          <Skipped>0</Skipped>
                          <Ignored>0</Ignored>
                          <Time />
                          <Message>Test successful

Execution time: 2,22ms</Message>
                          <ConsoleOutput>NHibernate: INSERT INTO Empresa (Designacao, Alvara, Telefone, Id) VALUES (?p0, ?p1, ?p2, ?p3);?p0 = 'EmpresaTeste' [Type: String (12)], ?p1 = '1111111' [Type: String (7)], ?p2 = '222223' [Type: String (6)], ?p3 = e00fa22e-1524-440a-8555-a1d3011da27d [Type: Guid (0)]
NHibernate: INSERT INTO Zona (Codigo, Designacao, Contigente, Id) VALUES (?p0, ?p1, ?p2, ?p3);?p0 = 'LSB' [Type: String (3)], ?p1 = 'Lisboa' [Type: String (6)], ?p2 = 100 [Type: Int32 (0)], ?p3 = 16a53d1a-64eb-498b-86e6-a1d3011da27e [Type: Guid (0)]
NHibernate: INSERT INTO Taxi (Matricula, Licenca, Lugares, Ano, EmpresaID, ZonaID, Id) VALUES (?p0, ?p1, ?p2, ?p3, ?p4, ?p5, ?p6);?p0 = '222-Teste' [Type: String (9)], ?p1 = 'licteste' [Type: String (8)], ?p2 = 4 [Type: Int32 (0)], ?p3 = 01-01-0001 00:00:00 [Type: DateTime (0)], ?p4 = e00fa22e-1524-440a-8555-a1d3011da27d [Type: Guid (0)], ?p5 = 16a53d1a-64eb-498b-86e6-a1d3011da27e [Type: Guid (0)], ?p6 = 92c2fd34-6194-4f6a-9400-a1d3011da27f [Type: Guid (0)]
NHibernate: INSERT INTO User (UserName, PassWord, Nome, Idade, CAP, EmpresaID, UserType, Id) VALUES (?p0, ?p1, ?p2, ?p3, ?p4, ?p5, 'TaxiService.Domain.Entities.Taxista', ?p6);?p0 = 'ttaTeste' [Type: String (8)], ?p1 = '12345' [Type: String (5)], ?p2 = 'TaxistaTeste' [Type: String (12)], ?p3 = 10 [Type: Int32 (0)], ?p4 = '1224556' [Type: String (7)], ?p5 = e00fa22e-1524-440a-8555-a1d3011da27d [Type: Guid (0)], ?p6 = a245689b-fcb0-4aa6-9082-a1d3011da280 [Type: Guid (0)]
NHibernate: INSERT INTO ServicoTaxi (InicioServico, FimServico, TaxiID, TaxistaID, Id) VALUES (?p0, ?p1, ?p2, ?p3, ?p4);?p0 = 04-06-2013 17:19:57 [Type: DateTime (0)], ?p1 = 01-01-0001 00:00:00 [Type: DateTime (0)], ?p2 = 92c2fd34-6194-4f6a-9400-a1d3011da27f [Type: Guid (0)], ?p3 = a245689b-fcb0-4aa6-9082-a1d3011da280 [Type: Guid (0)], ?p4 = 02b8b8b4-fd1c-4c6a-8583-a1d3011da281 [Type: Guid (0)]
NHibernate: SELECT this_.Id as Id4_0_, this_.InicioServico as InicioSe2_4_0_, this_.FimServico as FimServico4_0_, this_.TaxiID as TaxiID4_0_, this_.TaxistaID as TaxistaID4_0_ FROM ServicoTaxi this_
NHibernate: DELETE FROM ServicoTaxi WHERE Id = ?p0;?p0 = 02b8b8b4-fd1c-4c6a-8583-a1d3011da281 [Type: Guid (0)]
NHibernate: SELECT this_.Id as Id4_0_, this_.InicioServico as InicioSe2_4_0_, this_.FimServico as FimServico4_0_, this_.TaxiID as TaxiID4_0_, this_.TaxistaID as TaxistaID4_0_ FROM ServicoTaxi this_
NHibernate: SELECT servicotax0_.Id as Id4_0_, servicotax0_.InicioServico as InicioSe2_4_0_, servicotax0_.FimServico as FimServico4_0_, servicotax0_.TaxiID as TaxiID4_0_, servicotax0_.TaxistaID as TaxistaID4_0_ FROM ServicoTaxi servicotax0_ WHERE servicotax0_.Id=?p0;?p0 = 02b8b8b4-fd1c-4c6a-8583-a1d3011da281 [Type: Guid (0)]
</ConsoleOutput>
                          <ConsoleError />
                        </UnitTestResult>
                      </Results>
                    </TestRecord>
                  </Tests>
                </TestRecord>
                <TestRecord Name="NHTaxiRepositoryTest">
                  <Results>
                    <UnitTestResult>
                      <TestDate>2013-06-04T17:19:27</TestDate>
                      <Passed>6</Passed>
                      <Errors>0</Errors>
                      <Failures>0</Failures>
                      <Inconclusive>0</Inconclusive>
                      <NotRunnable>0</NotRunnable>
                      <Skipped>0</Skipped>
                      <Ignored>0</Ignored>
                      <Time />
                      <Message>Test successful

Execution time: 13,43ms</Message>
                    </UnitTestResult>
                  </Results>
                  <Tests>
                    <TestRecord Name="actualizar_propriedades_entidade_taxi">
                      <Results>
                        <UnitTestResult>
                          <TestDate>2013-06-04T17:19:27</TestDate>
                          <Passed>1</Passed>
                          <Errors>0</Errors>
                          <Failures>0</Failures>
                          <Inconclusive>0</Inconclusive>
                          <NotRunnable>0</NotRunnable>
                          <Skipped>0</Skipped>
                          <Ignored>0</Ignored>
                          <Time />
                          <Message>Test successful

Execution time: 2,16ms</Message>
                          <ConsoleOutput>NHibernate: INSERT INTO Empresa (Designacao, Alvara, Telefone, Id) VALUES (?p0, ?p1, ?p2, ?p3);?p0 = 'EmpresaTeste' [Type: String (12)], ?p1 = '1111111' [Type: String (7)], ?p2 = '222223' [Type: String (6)], ?p3 = a61859cb-a8a5-4950-b76a-a1d3011da50a [Type: Guid (0)]
NHibernate: INSERT INTO Zona (Codigo, Designacao, Contigente, Id) VALUES (?p0, ?p1, ?p2, ?p3);?p0 = 'LSB' [Type: String (3)], ?p1 = 'Lisboa' [Type: String (6)], ?p2 = 100 [Type: Int32 (0)], ?p3 = 4582db5a-85ff-4c83-9d77-a1d3011da50b [Type: Guid (0)]
NHibernate: INSERT INTO Taxi (Matricula, Licenca, Lugares, Ano, EmpresaID, ZonaID, Id) VALUES (?p0, ?p1, ?p2, ?p3, ?p4, ?p5, ?p6);?p0 = 'AAAA-2222-3333' [Type: String (14)], ?p1 = '20130511' [Type: String (8)], ?p2 = 10 [Type: Int32 (0)], ?p3 = 01-01-0001 00:00:00 [Type: DateTime (0)], ?p4 = a61859cb-a8a5-4950-b76a-a1d3011da50a [Type: Guid (0)], ?p5 = 4582db5a-85ff-4c83-9d77-a1d3011da50b [Type: Guid (0)], ?p6 = b6656571-1262-4416-b572-a1d3011da50c [Type: Guid (0)]
NHibernate: UPDATE Taxi SET Matricula = ?p0, Licenca = ?p1, Lugares = ?p2, Ano = ?p3, EmpresaID = ?p4, ZonaID = ?p5 WHERE Id = ?p6;?p0 = 'AAAA-2222-3333' [Type: String (14)], ?p1 = '123444567' [Type: String (9)], ?p2 = 29 [Type: Int32 (0)], ?p3 = 01-01-0001 00:00:00 [Type: DateTime (0)], ?p4 = a61859cb-a8a5-4950-b76a-a1d3011da50a [Type: Guid (0)], ?p5 = 4582db5a-85ff-4c83-9d77-a1d3011da50b [Type: Guid (0)], ?p6 = b6656571-1262-4416-b572-a1d3011da50c [Type: Guid (0)]
NHibernate: SELECT taxi0_.Id as Id2_0_, taxi0_.Matricula as Matricula2_0_, taxi0_.Licenca as Licenca2_0_, taxi0_.Lugares as Lugares2_0_, taxi0_.Ano as Ano2_0_, taxi0_.EmpresaID as EmpresaID2_0_, taxi0_.ZonaID as ZonaID2_0_ FROM Taxi taxi0_ WHERE taxi0_.Id=?p0;?p0 = b6656571-1262-4416-b572-a1d3011da50c [Type: Guid (0)]
</ConsoleOutput>
                          <ConsoleError />
                        </UnitTestResult>
                      </Results>
                    </TestRecord>
                    <TestRecord Name="eliminar_entidade_taxi_persistido">
                      <Results>
                        <UnitTestResult>
                          <TestDate>2013-06-04T17:19:27</TestDate>
                          <Passed>1</Passed>
                          <Errors>0</Errors>
                          <Failures>0</Failures>
                          <Inconclusive>0</Inconclusive>
                          <NotRunnable>0</NotRunnable>
                          <Skipped>0</Skipped>
                          <Ignored>0</Ignored>
                          <Time />
                          <Message>Test successful

Execution time: 2,25ms</Message>
                          <ConsoleOutput>NHibernate: INSERT INTO Empresa (Designacao, Alvara, Telefone, Id) VALUES (?p0, ?p1, ?p2, ?p3);?p0 = 'EmpresaTeste' [Type: String (12)], ?p1 = '1111111' [Type: String (7)], ?p2 = '222223' [Type: String (6)], ?p3 = 9657d37f-2d95-45d9-9674-a1d3011da7ae [Type: Guid (0)]
NHibernate: INSERT INTO Zona (Codigo, Designacao, Contigente, Id) VALUES (?p0, ?p1, ?p2, ?p3);?p0 = 'LSB' [Type: String (3)], ?p1 = 'Lisboa' [Type: String (6)], ?p2 = 100 [Type: Int32 (0)], ?p3 = 4bcdce21-3e44-46bf-8b0a-a1d3011da7af [Type: Guid (0)]
NHibernate: INSERT INTO Taxi (Matricula, Licenca, Lugares, Ano, EmpresaID, ZonaID, Id) VALUES (?p0, ?p1, ?p2, ?p3, ?p4, ?p5, ?p6);?p0 = 'AAAA-2222-3333' [Type: String (14)], ?p1 = '20130511' [Type: String (8)], ?p2 = 10 [Type: Int32 (0)], ?p3 = 01-01-0001 00:00:00 [Type: DateTime (0)], ?p4 = 9657d37f-2d95-45d9-9674-a1d3011da7ae [Type: Guid (0)], ?p5 = 4bcdce21-3e44-46bf-8b0a-a1d3011da7af [Type: Guid (0)], ?p6 = 1e8ca732-621e-4fc9-ab1f-a1d3011da7af [Type: Guid (0)]
NHibernate: SELECT this_.Id as Id2_0_, this_.Matricula as Matricula2_0_, this_.Licenca as Licenca2_0_, this_.Lugares as Lugares2_0_, this_.Ano as Ano2_0_, this_.EmpresaID as EmpresaID2_0_, this_.ZonaID as ZonaID2_0_ FROM Taxi this_
NHibernate: DELETE FROM Taxi WHERE Id = ?p0;?p0 = 1e8ca732-621e-4fc9-ab1f-a1d3011da7af [Type: Guid (0)]
NHibernate: SELECT this_.Id as Id2_0_, this_.Matricula as Matricula2_0_, this_.Licenca as Licenca2_0_, this_.Lugares as Lugares2_0_, this_.Ano as Ano2_0_, this_.EmpresaID as EmpresaID2_0_, this_.ZonaID as ZonaID2_0_ FROM Taxi this_
NHibernate: SELECT taxi0_.Id as Id2_0_, taxi0_.Matricula as Matricula2_0_, taxi0_.Licenca as Licenca2_0_, taxi0_.Lugares as Lugares2_0_, taxi0_.Ano as Ano2_0_, taxi0_.EmpresaID as EmpresaID2_0_, taxi0_.ZonaID as ZonaID2_0_ FROM Taxi taxi0_ WHERE taxi0_.Id=?p0;?p0 = 1e8ca732-621e-4fc9-ab1f-a1d3011da7af [Type: Guid (0)]
</ConsoleOutput>
                          <ConsoleError />
                        </UnitTestResult>
                      </Results>
                    </TestRecord>
                    <TestRecord Name="listar_taxi_persistido">
                      <Results>
                        <UnitTestResult>
                          <TestDate>2013-06-04T17:19:27</TestDate>
                          <Passed>1</Passed>
                          <Errors>0</Errors>
                          <Failures>0</Failures>
                          <Inconclusive>0</Inconclusive>
                          <NotRunnable>0</NotRunnable>
                          <Skipped>0</Skipped>
                          <Ignored>0</Ignored>
                          <Time />
                          <Message>Test successful

Execution time: 2,34ms</Message>
                          <ConsoleOutput>NHibernate: INSERT INTO Empresa (Designacao, Alvara, Telefone, Id) VALUES (?p0, ?p1, ?p2, ?p3);?p0 = 'EmpresaTeste' [Type: String (12)], ?p1 = '1111111' [Type: String (7)], ?p2 = '222223' [Type: String (6)], ?p3 = 0e702367-fc25-4893-8eac-a1d3011daa6f [Type: Guid (0)]
NHibernate: INSERT INTO Zona (Codigo, Designacao, Contigente, Id) VALUES (?p0, ?p1, ?p2, ?p3);?p0 = 'LSB' [Type: String (3)], ?p1 = 'Lisboa' [Type: String (6)], ?p2 = 100 [Type: Int32 (0)], ?p3 = 19826f78-8727-48cc-91d8-a1d3011daa70 [Type: Guid (0)]
NHibernate: INSERT INTO Taxi (Matricula, Licenca, Lugares, Ano, EmpresaID, ZonaID, Id) VALUES (?p0, ?p1, ?p2, ?p3, ?p4, ?p5, ?p6);?p0 = 'AAAA-2222-3333' [Type: String (14)], ?p1 = '20130511' [Type: String (8)], ?p2 = 10 [Type: Int32 (0)], ?p3 = 01-01-0001 00:00:00 [Type: DateTime (0)], ?p4 = 0e702367-fc25-4893-8eac-a1d3011daa6f [Type: Guid (0)], ?p5 = 19826f78-8727-48cc-91d8-a1d3011daa70 [Type: Guid (0)], ?p6 = 933dfcb2-e9b1-4a54-aec4-a1d3011daa70 [Type: Guid (0)]
NHibernate: SELECT this_.Id as Id2_0_, this_.Matricula as Matricula2_0_, this_.Licenca as Licenca2_0_, this_.Lugares as Lugares2_0_, this_.Ano as Ano2_0_, this_.EmpresaID as EmpresaID2_0_, this_.ZonaID as ZonaID2_0_ FROM Taxi this_
NHibernate: SELECT this_.Id as Id2_0_, this_.Matricula as Matricula2_0_, this_.Licenca as Licenca2_0_, this_.Lugares as Lugares2_0_, this_.Ano as Ano2_0_, this_.EmpresaID as EmpresaID2_0_, this_.ZonaID as ZonaID2_0_ FROM Taxi this_
</ConsoleOutput>
                          <ConsoleError />
                        </UnitTestResult>
                      </Results>
                    </TestRecord>
                    <TestRecord Name="persistir_entidade_taxi_duplicado">
                      <Results>
                        <UnitTestResult>
                          <TestDate>2013-06-04T17:19:27</TestDate>
                          <Passed>1</Passed>
                          <Errors>0</Errors>
                          <Failures>0</Failures>
                          <Inconclusive>0</Inconclusive>
                          <NotRunnable>0</NotRunnable>
                          <Skipped>0</Skipped>
                          <Ignored>0</Ignored>
                          <Time />
                          <Message>Test successful

Execution time: 2,27ms</Message>
                          <ConsoleOutput>NHibernate: INSERT INTO Empresa (Designacao, Alvara, Telefone, Id) VALUES (?p0, ?p1, ?p2, ?p3);?p0 = 'EmpresaTeste' [Type: String (12)], ?p1 = '1111111' [Type: String (7)], ?p2 = '222223' [Type: String (6)], ?p3 = 0bfd3c21-35c6-4a7a-958d-a1d3011dad19 [Type: Guid (0)]
NHibernate: INSERT INTO Zona (Codigo, Designacao, Contigente, Id) VALUES (?p0, ?p1, ?p2, ?p3);?p0 = 'LSB' [Type: String (3)], ?p1 = 'Lisboa' [Type: String (6)], ?p2 = 100 [Type: Int32 (0)], ?p3 = c0bc9ff9-6106-44be-b231-a1d3011dad1a [Type: Guid (0)]
NHibernate: INSERT INTO Taxi (Matricula, Licenca, Lugares, Ano, EmpresaID, ZonaID, Id) VALUES (?p0, ?p1, ?p2, ?p3, ?p4, ?p5, ?p6);?p0 = 'AAAA-2222-3333' [Type: String (14)], ?p1 = '20130511' [Type: String (8)], ?p2 = 10 [Type: Int32 (0)], ?p3 = 01-01-0001 00:00:00 [Type: DateTime (0)], ?p4 = 0bfd3c21-35c6-4a7a-958d-a1d3011dad19 [Type: Guid (0)], ?p5 = c0bc9ff9-6106-44be-b231-a1d3011dad1a [Type: Guid (0)], ?p6 = 3bd1ef83-0a28-44cc-abcd-a1d3011dad1b [Type: Guid (0)]
NHibernate: INSERT INTO Taxi (Matricula, Licenca, Lugares, Ano, EmpresaID, ZonaID, Id) VALUES (?p0, ?p1, ?p2, ?p3, ?p4, ?p5, ?p6);?p0 = 'AAAA-2222-3333' [Type: String (14)], ?p1 = '20130511' [Type: String (8)], ?p2 = 10 [Type: Int32 (0)], ?p3 = 01-01-0001 00:00:00 [Type: DateTime (0)], ?p4 = 0bfd3c21-35c6-4a7a-958d-a1d3011dad19 [Type: Guid (0)], ?p5 = c0bc9ff9-6106-44be-b231-a1d3011dad1a [Type: Guid (0)], ?p6 = ea9b5ba1-a816-4282-b60d-a1d3011dad1c [Type: Guid (0)]
</ConsoleOutput>
                          <ConsoleError />
                        </UnitTestResult>
                      </Results>
                    </TestRecord>
                    <TestRecord Name="persistir_entidade_taxi_sem_dados">
                      <Results>
                        <UnitTestResult>
                          <TestDate>2013-06-04T17:19:27</TestDate>
                          <Passed>1</Passed>
                          <Errors>0</Errors>
                          <Failures>0</Failures>
                          <Inconclusive>0</Inconclusive>
                          <NotRunnable>0</NotRunnable>
                          <Skipped>0</Skipped>
                          <Ignored>0</Ignored>
                          <Time />
                          <Message>Test successful

Execution time: 2,12ms</Message>
                          <ConsoleOutput>NHibernate: INSERT INTO Empresa (Designacao, Alvara, Telefone, Id) VALUES (?p0, ?p1, ?p2, ?p3);?p0 = 'EmpresaTeste' [Type: String (12)], ?p1 = '1111111' [Type: String (7)], ?p2 = '222223' [Type: String (6)], ?p3 = aabced7d-e5c4-41b7-848b-a1d3011daf98 [Type: Guid (0)]
NHibernate: INSERT INTO Zona (Codigo, Designacao, Contigente, Id) VALUES (?p0, ?p1, ?p2, ?p3);?p0 = 'LSB' [Type: String (3)], ?p1 = 'Lisboa' [Type: String (6)], ?p2 = 100 [Type: Int32 (0)], ?p3 = 95562c39-818d-4f0b-8d71-a1d3011daf99 [Type: Guid (0)]
</ConsoleOutput>
                          <ConsoleError />
                        </UnitTestResult>
                      </Results>
                    </TestRecord>
                    <TestRecord Name="persistir_nova_entidade_taxi">
                      <Results>
                        <UnitTestResult>
                          <TestDate>2013-06-04T17:19:27</TestDate>
                          <Passed>1</Passed>
                          <Errors>0</Errors>
                          <Failures>0</Failures>
                          <Inconclusive>0</Inconclusive>
                          <NotRunnable>0</NotRunnable>
                          <Skipped>0</Skipped>
                          <Ignored>0</Ignored>
                          <Time />
                          <Message>Test successful

Execution time: 2,26ms</Message>
                          <ConsoleOutput>NHibernate: INSERT INTO Empresa (Designacao, Alvara, Telefone, Id) VALUES (?p0, ?p1, ?p2, ?p3);?p0 = 'EmpresaTeste' [Type: String (12)], ?p1 = '1111111' [Type: String (7)], ?p2 = '222223' [Type: String (6)], ?p3 = a60cab6a-db01-416d-8a4a-a1d3011db23d [Type: Guid (0)]
NHibernate: INSERT INTO Zona (Codigo, Designacao, Contigente, Id) VALUES (?p0, ?p1, ?p2, ?p3);?p0 = 'LSB' [Type: String (3)], ?p1 = 'Lisboa' [Type: String (6)], ?p2 = 100 [Type: Int32 (0)], ?p3 = b6a8347e-62bf-4c96-b60a-a1d3011db23e [Type: Guid (0)]
NHibernate: SELECT this_.Id as Id2_0_, this_.Matricula as Matricula2_0_, this_.Licenca as Licenca2_0_, this_.Lugares as Lugares2_0_, this_.Ano as Ano2_0_, this_.EmpresaID as EmpresaID2_0_, this_.ZonaID as ZonaID2_0_ FROM Taxi this_
NHibernate: INSERT INTO Taxi (Matricula, Licenca, Lugares, Ano, EmpresaID, ZonaID, Id) VALUES (?p0, ?p1, ?p2, ?p3, ?p4, ?p5, ?p6);?p0 = 'AAAA-2222-3333' [Type: String (14)], ?p1 = '20130511' [Type: String (8)], ?p2 = 10 [Type: Int32 (0)], ?p3 = 01-01-0001 00:00:00 [Type: DateTime (0)], ?p4 = a60cab6a-db01-416d-8a4a-a1d3011db23d [Type: Guid (0)], ?p5 = b6a8347e-62bf-4c96-b60a-a1d3011db23e [Type: Guid (0)], ?p6 = 716a3845-0e6c-4733-b13d-a1d3011db23f [Type: Guid (0)]
NHibernate: SELECT this_.Id as Id2_0_, this_.Matricula as Matricula2_0_, this_.Licenca as Licenca2_0_, this_.Lugares as Lugares2_0_, this_.Ano as Ano2_0_, this_.EmpresaID as EmpresaID2_0_, this_.ZonaID as ZonaID2_0_ FROM Taxi this_
NHibernate: SELECT empresa0_.Id as Id0_0_, empresa0_.Designacao as Designacao0_0_, empresa0_.Alvara as Alvara0_0_, empresa0_.Telefone as Telefone0_0_ FROM Empresa empresa0_ WHERE empresa0_.Id=?p0;?p0 = a60cab6a-db01-416d-8a4a-a1d3011db23d [Type: Guid (0)]
</ConsoleOutput>
                          <ConsoleError />
                        </UnitTestResult>
                      </Results>
                    </TestRecord>
                  </Tests>
                </TestRecord>
                <TestRecord Name="NHTaxistaRepositoryTest">
                  <Results>
                    <UnitTestResult>
                      <TestDate>2013-06-04T17:19:27</TestDate>
                      <Passed>8</Passed>
                      <Errors>0</Errors>
                      <Failures>0</Failures>
                      <Inconclusive>0</Inconclusive>
                      <NotRunnable>0</NotRunnable>
                      <Skipped>0</Skipped>
                      <Ignored>0</Ignored>
                      <Time />
                      <Message>Test successful

Execution time: 18,35ms</Message>
                    </UnitTestResult>
                  </Results>
                  <Tests>
                    <TestRecord Name="actualizar_propriedades_taxista">
                      <Results>
                        <UnitTestResult>
                          <TestDate>2013-06-04T17:19:27</TestDate>
                          <Passed>1</Passed>
                          <Errors>0</Errors>
                          <Failures>0</Failures>
                          <Inconclusive>0</Inconclusive>
                          <NotRunnable>0</NotRunnable>
                          <Skipped>0</Skipped>
                          <Ignored>0</Ignored>
                          <Time />
                          <Message>Test successful

Execution time: 2,34ms</Message>
                          <ConsoleOutput>NHibernate: INSERT INTO Empresa (Designacao, Alvara, Telefone, Id) VALUES (?p0, ?p1, ?p2, ?p3);?p0 = 'EmpresaTeste' [Type: String (12)], ?p1 = '1111111' [Type: String (7)], ?p2 = '222223' [Type: String (6)], ?p3 = 19d184d1-52be-458a-b74f-a1d3011db4fa [Type: Guid (0)]
NHibernate: INSERT INTO User (UserName, PassWord, Nome, Idade, CAP, EmpresaID, UserType, Id) VALUES (?p0, ?p1, ?p2, ?p3, ?p4, ?p5, 'TaxiService.Domain.Entities.Taxista', ?p6);?p0 = 'testeUser' [Type: String (9)], ?p1 = '12345' [Type: String (5)], ?p2 = 'TaxistaTeste' [Type: String (12)], ?p3 = 10 [Type: Int32 (0)], ?p4 = '1234567' [Type: String (7)], ?p5 = 19d184d1-52be-458a-b74f-a1d3011db4fa [Type: Guid (0)], ?p6 = df8f5b87-67e1-45b6-a1a8-a1d3011db500 [Type: Guid (0)]
NHibernate: SELECT taxista_.UserName as UserName1_ FROM User taxista_ WHERE taxista_.Id=?p0;?p0 = df8f5b87-67e1-45b6-a1a8-a1d3011db500 [Type: Guid (0)]
NHibernate: UPDATE User SET PassWord = ?p0, Nome = ?p1, Idade = ?p2, CAP = ?p3, EmpresaID = ?p4 WHERE Id = ?p5;?p0 = 'aaaa' [Type: String (4)], ?p1 = 'userTest2' [Type: String (9)], ?p2 = 10 [Type: Int32 (0)], ?p3 = '12345' [Type: String (5)], ?p4 = 19d184d1-52be-458a-b74f-a1d3011db4fa [Type: Guid (0)], ?p5 = df8f5b87-67e1-45b6-a1a8-a1d3011db500 [Type: Guid (0)]
NHibernate: SELECT taxista0_.Id as Id1_0_, taxista0_.UserName as UserName1_0_, taxista0_.PassWord as PassWord1_0_, taxista0_.Nome as Nome1_0_, taxista0_.Idade as Idade1_0_, taxista0_.CAP as CAP1_0_, taxista0_.EmpresaID as EmpresaID1_0_ FROM User taxista0_ WHERE taxista0_.Id=?p0 and taxista0_.UserType='TaxiService.Domain.Entities.Taxista';?p0 = df8f5b87-67e1-45b6-a1a8-a1d3011db500 [Type: Guid (0)]
</ConsoleOutput>
                          <ConsoleError />
                        </UnitTestResult>
                      </Results>
                    </TestRecord>
                    <TestRecord Name="eliminar_taxista_persistido">
                      <Results>
                        <UnitTestResult>
                          <TestDate>2013-06-04T17:19:27</TestDate>
                          <Passed>1</Passed>
                          <Errors>0</Errors>
                          <Failures>0</Failures>
                          <Inconclusive>0</Inconclusive>
                          <NotRunnable>0</NotRunnable>
                          <Skipped>0</Skipped>
                          <Ignored>0</Ignored>
                          <Time />
                          <Message>Test successful

Execution time: 2,25ms</Message>
                          <ConsoleOutput>NHibernate: INSERT INTO Empresa (Designacao, Alvara, Telefone, Id) VALUES (?p0, ?p1, ?p2, ?p3);?p0 = 'EmpresaTeste' [Type: String (12)], ?p1 = '1111111' [Type: String (7)], ?p2 = '222223' [Type: String (6)], ?p3 = 71456312-224a-4a70-a389-a1d3011db7a2 [Type: Guid (0)]
NHibernate: INSERT INTO User (UserName, PassWord, Nome, Idade, CAP, EmpresaID, UserType, Id) VALUES (?p0, ?p1, ?p2, ?p3, ?p4, ?p5, 'TaxiService.Domain.Entities.Taxista', ?p6);?p0 = 'testeUser' [Type: String (9)], ?p1 = '12345' [Type: String (5)], ?p2 = 'TaxistaTeste' [Type: String (12)], ?p3 = 10 [Type: Int32 (0)], ?p4 = '1234567' [Type: String (7)], ?p5 = 71456312-224a-4a70-a389-a1d3011db7a2 [Type: Guid (0)], ?p6 = c6469190-9def-4510-9664-a1d3011db7a3 [Type: Guid (0)]
NHibernate: SELECT this_.Id as Id1_0_, this_.UserName as UserName1_0_, this_.PassWord as PassWord1_0_, this_.Nome as Nome1_0_, this_.Idade as Idade1_0_, this_.CAP as CAP1_0_, this_.EmpresaID as EmpresaID1_0_ FROM User this_ WHERE this_.UserType='TaxiService.Domain.Entities.Taxista'
NHibernate: DELETE FROM User WHERE Id = ?p0;?p0 = c6469190-9def-4510-9664-a1d3011db7a3 [Type: Guid (0)]
NHibernate: SELECT this_.Id as Id1_0_, this_.UserName as UserName1_0_, this_.PassWord as PassWord1_0_, this_.Nome as Nome1_0_, this_.Idade as Idade1_0_, this_.CAP as CAP1_0_, this_.EmpresaID as EmpresaID1_0_ FROM User this_ WHERE this_.UserType='TaxiService.Domain.Entities.Taxista'
NHibernate: SELECT taxista0_.Id as Id1_0_, taxista0_.UserName as UserName1_0_, taxista0_.PassWord as PassWord1_0_, taxista0_.Nome as Nome1_0_, taxista0_.Idade as Idade1_0_, taxista0_.CAP as CAP1_0_, taxista0_.EmpresaID as EmpresaID1_0_ FROM User taxista0_ WHERE taxista0_.Id=?p0 and taxista0_.UserType='TaxiService.Domain.Entities.Taxista';?p0 = c6469190-9def-4510-9664-a1d3011db7a3 [Type: Guid (0)]
</ConsoleOutput>
                          <ConsoleError />
                        </UnitTestResult>
                      </Results>
                    </TestRecord>
                    <TestRecord Name="inserir_novo_taxista">
                      <Results>
                        <UnitTestResult>
                          <TestDate>2013-06-04T17:19:27</TestDate>
                          <Passed>1</Passed>
                          <Errors>0</Errors>
                          <Failures>0</Failures>
                          <Inconclusive>0</Inconclusive>
                          <NotRunnable>0</NotRunnable>
                          <Skipped>0</Skipped>
                          <Ignored>0</Ignored>
                          <Time />
                          <Message>Test successful

Execution time: 2,17ms</Message>
                          <ConsoleOutput>NHibernate: INSERT INTO Empresa (Designacao, Alvara, Telefone, Id) VALUES (?p0, ?p1, ?p2, ?p3);?p0 = 'EmpresaTeste' [Type: String (12)], ?p1 = '1111111' [Type: String (7)], ?p2 = '222223' [Type: String (6)], ?p3 = a8bd3b77-769b-4c0c-a72a-a1d3011dba31 [Type: Guid (0)]
NHibernate: INSERT INTO User (UserName, PassWord, Nome, Idade, CAP, EmpresaID, UserType, Id) VALUES (?p0, ?p1, ?p2, ?p3, ?p4, ?p5, 'TaxiService.Domain.Entities.Taxista', ?p6);?p0 = 'testeUser' [Type: String (9)], ?p1 = '12345' [Type: String (5)], ?p2 = 'TaxistaTeste' [Type: String (12)], ?p3 = 10 [Type: Int32 (0)], ?p4 = '1234567' [Type: String (7)], ?p5 = a8bd3b77-769b-4c0c-a72a-a1d3011dba31 [Type: Guid (0)], ?p6 = 8d9fc09b-bca6-4856-a76f-a1d3011dba32 [Type: Guid (0)]
</ConsoleOutput>
                          <ConsoleError />
                        </UnitTestResult>
                      </Results>
                    </TestRecord>
                    <TestRecord Name="ler_taxista_persistido">
                      <Results>
                        <UnitTestResult>
                          <TestDate>2013-06-04T17:19:27</TestDate>
                          <Passed>1</Passed>
                          <Errors>0</Errors>
                          <Failures>0</Failures>
                          <Inconclusive>0</Inconclusive>
                          <NotRunnable>0</NotRunnable>
                          <Skipped>0</Skipped>
                          <Ignored>0</Ignored>
                          <Time />
                          <Message>Test successful

Execution time: 2,31ms</Message>
                          <ConsoleOutput>NHibernate: INSERT INTO Empresa (Designacao, Alvara, Telefone, Id) VALUES (?p0, ?p1, ?p2, ?p3);?p0 = 'EmpresaTeste' [Type: String (12)], ?p1 = '1111111' [Type: String (7)], ?p2 = '222223' [Type: String (6)], ?p3 = daa86fed-ccb4-44bd-be8b-a1d3011dbce6 [Type: Guid (0)]
NHibernate: INSERT INTO User (UserName, PassWord, Nome, Idade, CAP, EmpresaID, UserType, Id) VALUES (?p0, ?p1, ?p2, ?p3, ?p4, ?p5, 'TaxiService.Domain.Entities.Taxista', ?p6);?p0 = 'testeUser' [Type: String (9)], ?p1 = '12345' [Type: String (5)], ?p2 = 'TaxistaTeste' [Type: String (12)], ?p3 = 10 [Type: Int32 (0)], ?p4 = '1234567' [Type: String (7)], ?p5 = daa86fed-ccb4-44bd-be8b-a1d3011dbce6 [Type: Guid (0)], ?p6 = 391a472c-800c-4322-a2e9-a1d3011dbce7 [Type: Guid (0)]
NHibernate: SELECT taxista0_.Id as Id1_0_, taxista0_.UserName as UserName1_0_, taxista0_.PassWord as PassWord1_0_, taxista0_.Nome as Nome1_0_, taxista0_.Idade as Idade1_0_, taxista0_.CAP as CAP1_0_, taxista0_.EmpresaID as EmpresaID1_0_ FROM User taxista0_ WHERE taxista0_.Id=?p0 and taxista0_.UserType='TaxiService.Domain.Entities.Taxista';?p0 = 391a472c-800c-4322-a2e9-a1d3011dbce7 [Type: Guid (0)]
</ConsoleOutput>
                          <ConsoleError />
                        </UnitTestResult>
                      </Results>
                    </TestRecord>
                    <TestRecord Name="listar_taxistas_persistidos">
                      <Results>
                        <UnitTestResult>
                          <TestDate>2013-06-04T17:19:27</TestDate>
                          <Passed>1</Passed>
                          <Errors>0</Errors>
                          <Failures>0</Failures>
                          <Inconclusive>0</Inconclusive>
                          <NotRunnable>0</NotRunnable>
                          <Skipped>0</Skipped>
                          <Ignored>0</Ignored>
                          <Time />
                          <Message>Test successful

Execution time: 2,31ms</Message>
                          <ConsoleOutput>NHibernate: INSERT INTO Empresa (Designacao, Alvara, Telefone, Id) VALUES (?p0, ?p1, ?p2, ?p3);?p0 = 'EmpresaTeste' [Type: String (12)], ?p1 = '1111111' [Type: String (7)], ?p2 = '222223' [Type: String (6)], ?p3 = 42b264dc-8980-4a3c-afac-a1d3011dbf9d [Type: Guid (0)]
NHibernate: INSERT INTO User (UserName, PassWord, Nome, Idade, CAP, EmpresaID, UserType, Id) VALUES (?p0, ?p1, ?p2, ?p3, ?p4, ?p5, 'TaxiService.Domain.Entities.Taxista', ?p6);?p0 = 'testeUser' [Type: String (9)], ?p1 = '12345' [Type: String (5)], ?p2 = 'TaxistaTeste' [Type: String (12)], ?p3 = 10 [Type: Int32 (0)], ?p4 = '1234567' [Type: String (7)], ?p5 = 42b264dc-8980-4a3c-afac-a1d3011dbf9d [Type: Guid (0)], ?p6 = 3442bae6-3607-4403-95cf-a1d3011dbf9e [Type: Guid (0)]
NHibernate: SELECT this_.Id as Id1_0_, this_.UserName as UserName1_0_, this_.PassWord as PassWord1_0_, this_.Nome as Nome1_0_, this_.Idade as Idade1_0_, this_.CAP as CAP1_0_, this_.EmpresaID as EmpresaID1_0_ FROM User this_ WHERE this_.UserType='TaxiService.Domain.Entities.Taxista'
NHibernate: SELECT this_.Id as Id1_0_, this_.UserName as UserName1_0_, this_.PassWord as PassWord1_0_, this_.Nome as Nome1_0_, this_.Idade as Idade1_0_, this_.CAP as CAP1_0_, this_.EmpresaID as EmpresaID1_0_ FROM User this_ WHERE this_.UserType='TaxiService.Domain.Entities.Taxista'
</ConsoleOutput>
                          <ConsoleError />
                        </UnitTestResult>
                      </Results>
                    </TestRecord>
                    <TestRecord Name="persistir_entidade_taxista_com_dados_incompletos">
                      <Results>
                        <UnitTestResult>
                          <TestDate>2013-06-04T17:19:27</TestDate>
                          <Passed>1</Passed>
                          <Errors>0</Errors>
                          <Failures>0</Failures>
                          <Inconclusive>0</Inconclusive>
                          <NotRunnable>0</NotRunnable>
                          <Skipped>0</Skipped>
                          <Ignored>0</Ignored>
                          <Time />
                          <Message>Test successful

Execution time: 2,23ms</Message>
                          <ConsoleOutput>NHibernate: INSERT INTO Empresa (Designacao, Alvara, Telefone, Id) VALUES (?p0, ?p1, ?p2, ?p3);?p0 = 'EmpresaTeste' [Type: String (12)], ?p1 = '1111111' [Type: String (7)], ?p2 = '222223' [Type: String (6)], ?p3 = fb89faf0-738c-40d0-968b-a1d3011dc23b [Type: Guid (0)]
</ConsoleOutput>
                          <ConsoleError />
                        </UnitTestResult>
                      </Results>
                    </TestRecord>
                    <TestRecord Name="persistir_entidades_duplicadas">
                      <Results>
                        <UnitTestResult>
                          <TestDate>2013-06-04T17:19:27</TestDate>
                          <Passed>1</Passed>
                          <Errors>0</Errors>
                          <Failures>0</Failures>
                          <Inconclusive>0</Inconclusive>
                          <NotRunnable>0</NotRunnable>
                          <Skipped>0</Skipped>
                          <Ignored>0</Ignored>
                          <Time />
                          <Message>Test successful

Execution time: 2,33ms</Message>
                          <ConsoleOutput>NHibernate: INSERT INTO Empresa (Designacao, Alvara, Telefone, Id) VALUES (?p0, ?p1, ?p2, ?p3);?p0 = 'EmpresaTeste' [Type: String (12)], ?p1 = '1111111' [Type: String (7)], ?p2 = '222223' [Type: String (6)], ?p3 = 9e29ed91-b614-434f-9f6a-a1d3011dc4f9 [Type: Guid (0)]
NHibernate: INSERT INTO User (UserName, PassWord, Nome, Idade, CAP, EmpresaID, UserType, Id) VALUES (?p0, ?p1, ?p2, ?p3, ?p4, ?p5, 'TaxiService.Domain.Entities.Taxista', ?p6);?p0 = 'testeUser' [Type: String (9)], ?p1 = '12345' [Type: String (5)], ?p2 = 'TaxistaTeste' [Type: String (12)], ?p3 = 10 [Type: Int32 (0)], ?p4 = '1234567' [Type: String (7)], ?p5 = 9e29ed91-b614-434f-9f6a-a1d3011dc4f9 [Type: Guid (0)], ?p6 = d121f1a6-d0a4-451c-9649-a1d3011dc4fa [Type: Guid (0)]
NHibernate: INSERT INTO User (UserName, PassWord, Nome, Idade, CAP, EmpresaID, UserType, Id) VALUES (?p0, ?p1, ?p2, ?p3, ?p4, ?p5, 'TaxiService.Domain.Entities.Taxista', ?p6);?p0 = 'testeUser' [Type: String (9)], ?p1 = '12345' [Type: String (5)], ?p2 = 'TaxistaTeste' [Type: String (12)], ?p3 = 10 [Type: Int32 (0)], ?p4 = '1234567' [Type: String (7)], ?p5 = 9e29ed91-b614-434f-9f6a-a1d3011dc4f9 [Type: Guid (0)], ?p6 = eb94c5e7-f63e-4ba3-a417-a1d3011dc4fb [Type: Guid (0)]
</ConsoleOutput>
                          <ConsoleError />
                        </UnitTestResult>
                      </Results>
                    </TestRecord>
                    <TestRecord Name="verificar_existencia_duma_entidade_persistida">
                      <Results>
                        <UnitTestResult>
                          <TestDate>2013-06-04T17:19:27</TestDate>
                          <Passed>1</Passed>
                          <Errors>0</Errors>
                          <Failures>0</Failures>
                          <Inconclusive>0</Inconclusive>
                          <NotRunnable>0</NotRunnable>
                          <Skipped>0</Skipped>
                          <Ignored>0</Ignored>
                          <Time />
                          <Message>Test successful

Execution time: 2,37ms</Message>
                          <ConsoleOutput>NHibernate: INSERT INTO Empresa (Designacao, Alvara, Telefone, Id) VALUES (?p0, ?p1, ?p2, ?p3);?p0 = 'EmpresaTeste' [Type: String (12)], ?p1 = '1111111' [Type: String (7)], ?p2 = '222223' [Type: String (6)], ?p3 = edb8599c-dc23-4257-9eef-a1d3011dc7c1 [Type: Guid (0)]
NHibernate: INSERT INTO User (UserName, PassWord, Nome, Idade, CAP, EmpresaID, UserType, Id) VALUES (?p0, ?p1, ?p2, ?p3, ?p4, ?p5, 'TaxiService.Domain.Entities.Taxista', ?p6);?p0 = 'testeUser' [Type: String (9)], ?p1 = '12345' [Type: String (5)], ?p2 = 'TaxistaTeste' [Type: String (12)], ?p3 = 10 [Type: Int32 (0)], ?p4 = '1234567' [Type: String (7)], ?p5 = edb8599c-dc23-4257-9eef-a1d3011dc7c1 [Type: Guid (0)], ?p6 = 629fa0e6-1b01-4a1c-b160-a1d3011dc7c2 [Type: Guid (0)]
NHibernate: SELECT taxista0_.Id as Id1_0_, taxista0_.UserName as UserName1_0_, taxista0_.PassWord as PassWord1_0_, taxista0_.Nome as Nome1_0_, taxista0_.Idade as Idade1_0_, taxista0_.CAP as CAP1_0_, taxista0_.EmpresaID as EmpresaID1_0_ FROM User taxista0_ WHERE taxista0_.Id=?p0 and taxista0_.UserType='TaxiService.Domain.Entities.Taxista';?p0 = 629fa0e6-1b01-4a1c-b160-a1d3011dc7c2 [Type: Guid (0)]
</ConsoleOutput>
                          <ConsoleError />
                        </UnitTestResult>
                      </Results>
                    </TestRecord>
                  </Tests>
                </TestRecord>
                <TestRecord Name="NHTransporteTaxiRepositoryTest">
                  <Results>
                    <UnitTestResult>
                      <TestDate>2013-06-04T17:19:27</TestDate>
                      <Passed>4</Passed>
                      <Errors>0</Errors>
                      <Failures>0</Failures>
                      <Inconclusive>0</Inconclusive>
                      <NotRunnable>0</NotRunnable>
                      <Skipped>0</Skipped>
                      <Ignored>0</Ignored>
                      <Time />
                      <Message>Test successful

Execution time: 9,07ms</Message>
                    </UnitTestResult>
                  </Results>
                  <Tests>
                    <TestRecord Name="actualizar_propriedades_transporte_taxi">
                      <Results>
                        <UnitTestResult>
                          <TestDate>2013-06-04T17:19:27</TestDate>
                          <Passed>1</Passed>
                          <Errors>0</Errors>
                          <Failures>0</Failures>
                          <Inconclusive>0</Inconclusive>
                          <NotRunnable>0</NotRunnable>
                          <Skipped>0</Skipped>
                          <Ignored>0</Ignored>
                          <Time />
                          <Message>Test successful

Execution time: 2,49ms</Message>
                          <ConsoleOutput>NHibernate: INSERT INTO Empresa (Designacao, Alvara, Telefone, Id) VALUES (?p0, ?p1, ?p2, ?p3);?p0 = 'EmpresaTeste' [Type: String (12)], ?p1 = '1111111' [Type: String (7)], ?p2 = '222223' [Type: String (6)], ?p3 = c8bf1086-9b64-499a-a080-a1d3011dcaab [Type: Guid (0)]
NHibernate: INSERT INTO Zona (Codigo, Designacao, Contigente, Id) VALUES (?p0, ?p1, ?p2, ?p3);?p0 = 'LSB' [Type: String (3)], ?p1 = 'Lisboa' [Type: String (6)], ?p2 = 100 [Type: Int32 (0)], ?p3 = d0ef38b1-7486-4ac2-8ac4-a1d3011dcaac [Type: Guid (0)]
NHibernate: INSERT INTO Taxi (Matricula, Licenca, Lugares, Ano, EmpresaID, ZonaID, Id) VALUES (?p0, ?p1, ?p2, ?p3, ?p4, ?p5, ?p6);?p0 = '222-Teste' [Type: String (9)], ?p1 = 'licteste' [Type: String (8)], ?p2 = 4 [Type: Int32 (0)], ?p3 = 01-01-0001 00:00:00 [Type: DateTime (0)], ?p4 = c8bf1086-9b64-499a-a080-a1d3011dcaab [Type: Guid (0)], ?p5 = d0ef38b1-7486-4ac2-8ac4-a1d3011dcaac [Type: Guid (0)], ?p6 = b989b9b8-5663-409a-b5c4-a1d3011dcaac [Type: Guid (0)]
NHibernate: INSERT INTO User (UserName, PassWord, Nome, Idade, CAP, EmpresaID, UserType, Id) VALUES (?p0, ?p1, ?p2, ?p3, ?p4, ?p5, 'TaxiService.Domain.Entities.Taxista', ?p6);?p0 = 'ttaTeste' [Type: String (8)], ?p1 = '12345' [Type: String (5)], ?p2 = 'TaxistaTeste' [Type: String (12)], ?p3 = 10 [Type: Int32 (0)], ?p4 = '1224556' [Type: String (7)], ?p5 = c8bf1086-9b64-499a-a080-a1d3011dcaab [Type: Guid (0)], ?p6 = 394f0889-3a0a-411d-8271-a1d3011dcaad [Type: Guid (0)]
NHibernate: INSERT INTO ServicoTaxi (InicioServico, FimServico, TaxiID, TaxistaID, Id) VALUES (?p0, ?p1, ?p2, ?p3, ?p4);?p0 = 04-06-2013 17:20:32 [Type: DateTime (0)], ?p1 = 01-01-0001 00:00:00 [Type: DateTime (0)], ?p2 = b989b9b8-5663-409a-b5c4-a1d3011dcaac [Type: Guid (0)], ?p3 = 394f0889-3a0a-411d-8271-a1d3011dcaad [Type: Guid (0)], ?p4 = be4efd7e-d51a-494a-b8c0-a1d3011dcaae [Type: Guid (0)]
NHibernate: INSERT INTO User (UserName, PassWord, Nome, UserType, Id) VALUES (?p0, ?p1, ?p2, 'TaxiService.Domain.Entities.Utente', ?p3);?p0 = 'tutente' [Type: String (7)], ?p1 = '123457' [Type: String (6)], ?p2 = 'UtenteTeste' [Type: String (11)], ?p3 = 46979777-027e-4406-935c-a1d3011dcaae [Type: Guid (0)]
NHibernate: INSERT INTO TransporteTaxi (Avaliacao, Estado, UtenteID, ServicoTaxiID, Id) VALUES (?p0, ?p1, ?p2, ?p3, ?p4);?p0 = 5 [Type: Int32 (0)], ?p1 = 1 [Type: Int32 (0)], ?p2 = 46979777-027e-4406-935c-a1d3011dcaae [Type: Guid (0)], ?p3 = be4efd7e-d51a-494a-b8c0-a1d3011dcaae [Type: Guid (0)], ?p4 = 07d61551-82d4-48c4-ac75-a1d3011dcaaf [Type: Guid (0)]
NHibernate: SELECT this_.Id as Id5_0_, this_.Avaliacao as Avaliacao5_0_, this_.Estado as Estado5_0_, this_.UtenteID as UtenteID5_0_, this_.ServicoTaxiID as ServicoT5_5_0_ FROM TransporteTaxi this_
NHibernate: UPDATE TransporteTaxi SET Avaliacao = ?p0, Estado = ?p1, UtenteID = ?p2, ServicoTaxiID = ?p3 WHERE Id = ?p4;?p0 = 2 [Type: Int32 (0)], ?p1 = 2 [Type: Int32 (0)], ?p2 = 46979777-027e-4406-935c-a1d3011dcaae [Type: Guid (0)], ?p3 = be4efd7e-d51a-494a-b8c0-a1d3011dcaae [Type: Guid (0)], ?p4 = 07d61551-82d4-48c4-ac75-a1d3011dcaaf [Type: Guid (0)]
NHibernate: SELECT transporte0_.Id as Id5_0_, transporte0_.Avaliacao as Avaliacao5_0_, transporte0_.Estado as Estado5_0_, transporte0_.UtenteID as UtenteID5_0_, transporte0_.ServicoTaxiID as ServicoT5_5_0_ FROM TransporteTaxi transporte0_ WHERE transporte0_.Id=?p0;?p0 = 07d61551-82d4-48c4-ac75-a1d3011dcaaf [Type: Guid (0)]
NHibernate: SELECT this_.Id as Id5_0_, this_.Avaliacao as Avaliacao5_0_, this_.Estado as Estado5_0_, this_.UtenteID as UtenteID5_0_, this_.ServicoTaxiID as ServicoT5_5_0_ FROM TransporteTaxi this_
</ConsoleOutput>
                          <ConsoleError />
                        </UnitTestResult>
                      </Results>
                    </TestRecord>
                    <TestRecord Name="inserir_novo_transporte_taxi">
                      <Results>
                        <UnitTestResult>
                          <TestDate>2013-06-04T17:19:27</TestDate>
                          <Passed>1</Passed>
                          <Errors>0</Errors>
                          <Failures>0</Failures>
                          <Inconclusive>0</Inconclusive>
                          <NotRunnable>0</NotRunnable>
                          <Skipped>0</Skipped>
                          <Ignored>0</Ignored>
                          <Time />
                          <Message>Test successful

Execution time: 2,14ms</Message>
                          <ConsoleOutput>NHibernate: INSERT INTO Empresa (Designacao, Alvara, Telefone, Id) VALUES (?p0, ?p1, ?p2, ?p3);?p0 = 'EmpresaTeste' [Type: String (12)], ?p1 = '1111111' [Type: String (7)], ?p2 = '222223' [Type: String (6)], ?p3 = b7825fce-12e8-46d8-80b4-a1d3011dcd2e [Type: Guid (0)]
NHibernate: INSERT INTO Zona (Codigo, Designacao, Contigente, Id) VALUES (?p0, ?p1, ?p2, ?p3);?p0 = 'LSB' [Type: String (3)], ?p1 = 'Lisboa' [Type: String (6)], ?p2 = 100 [Type: Int32 (0)], ?p3 = b12fe28f-3942-433a-9cc5-a1d3011dcd2e [Type: Guid (0)]
NHibernate: INSERT INTO Taxi (Matricula, Licenca, Lugares, Ano, EmpresaID, ZonaID, Id) VALUES (?p0, ?p1, ?p2, ?p3, ?p4, ?p5, ?p6);?p0 = '222-Teste' [Type: String (9)], ?p1 = 'licteste' [Type: String (8)], ?p2 = 4 [Type: Int32 (0)], ?p3 = 01-01-0001 00:00:00 [Type: DateTime (0)], ?p4 = b7825fce-12e8-46d8-80b4-a1d3011dcd2e [Type: Guid (0)], ?p5 = b12fe28f-3942-433a-9cc5-a1d3011dcd2e [Type: Guid (0)], ?p6 = 2db41cb4-2a95-4dc9-beec-a1d3011dcd2f [Type: Guid (0)]
NHibernate: INSERT INTO User (UserName, PassWord, Nome, Idade, CAP, EmpresaID, UserType, Id) VALUES (?p0, ?p1, ?p2, ?p3, ?p4, ?p5, 'TaxiService.Domain.Entities.Taxista', ?p6);?p0 = 'ttaTeste' [Type: String (8)], ?p1 = '12345' [Type: String (5)], ?p2 = 'TaxistaTeste' [Type: String (12)], ?p3 = 10 [Type: Int32 (0)], ?p4 = '1224556' [Type: String (7)], ?p5 = b7825fce-12e8-46d8-80b4-a1d3011dcd2e [Type: Guid (0)], ?p6 = 558255e1-cdeb-4509-9d0d-a1d3011dcd30 [Type: Guid (0)]
NHibernate: INSERT INTO ServicoTaxi (InicioServico, FimServico, TaxiID, TaxistaID, Id) VALUES (?p0, ?p1, ?p2, ?p3, ?p4);?p0 = 04-06-2013 17:20:34 [Type: DateTime (0)], ?p1 = 01-01-0001 00:00:00 [Type: DateTime (0)], ?p2 = 2db41cb4-2a95-4dc9-beec-a1d3011dcd2f [Type: Guid (0)], ?p3 = 558255e1-cdeb-4509-9d0d-a1d3011dcd30 [Type: Guid (0)], ?p4 = 128b6e0b-f8e5-4ab4-81f7-a1d3011dcd33 [Type: Guid (0)]
NHibernate: INSERT INTO User (UserName, PassWord, Nome, UserType, Id) VALUES (?p0, ?p1, ?p2, 'TaxiService.Domain.Entities.Utente', ?p3);?p0 = 'tutente' [Type: String (7)], ?p1 = '123457' [Type: String (6)], ?p2 = 'UtenteTeste' [Type: String (11)], ?p3 = 50ddaa8b-eb9a-49df-a311-a1d3011dcd34 [Type: Guid (0)]
NHibernate: SELECT this_.Id as Id5_0_, this_.Avaliacao as Avaliacao5_0_, this_.Estado as Estado5_0_, this_.UtenteID as UtenteID5_0_, this_.ServicoTaxiID as ServicoT5_5_0_ FROM TransporteTaxi this_
NHibernate: INSERT INTO TransporteTaxi (Avaliacao, Estado, UtenteID, ServicoTaxiID, Id) VALUES (?p0, ?p1, ?p2, ?p3, ?p4);?p0 = 5 [Type: Int32 (0)], ?p1 = 1 [Type: Int32 (0)], ?p2 = 50ddaa8b-eb9a-49df-a311-a1d3011dcd34 [Type: Guid (0)], ?p3 = 128b6e0b-f8e5-4ab4-81f7-a1d3011dcd33 [Type: Guid (0)], ?p4 = aab6d6c2-71e4-4370-8ec8-a1d3011dcd35 [Type: Guid (0)]
NHibernate: SELECT this_.Id as Id5_0_, this_.Avaliacao as Avaliacao5_0_, this_.Estado as Estado5_0_, this_.UtenteID as UtenteID5_0_, this_.ServicoTaxiID as ServicoT5_5_0_ FROM TransporteTaxi this_
NHibernate: SELECT servicotax0_.Id as Id4_0_, servicotax0_.InicioServico as InicioSe2_4_0_, servicotax0_.FimServico as FimServico4_0_, servicotax0_.TaxiID as TaxiID4_0_, servicotax0_.TaxistaID as TaxistaID4_0_ FROM ServicoTaxi servicotax0_ WHERE servicotax0_.Id=?p0;?p0 = 128b6e0b-f8e5-4ab4-81f7-a1d3011dcd33 [Type: Guid (0)]
</ConsoleOutput>
                          <ConsoleError />
                        </UnitTestResult>
                      </Results>
                    </TestRecord>
                    <TestRecord Name="listar_transporte_taxis_persistidos">
                      <Results>
                        <UnitTestResult>
                          <TestDate>2013-06-04T17:19:27</TestDate>
                          <Passed>1</Passed>
                          <Errors>0</Errors>
                          <Failures>0</Failures>
                          <Inconclusive>0</Inconclusive>
                          <NotRunnable>0</NotRunnable>
                          <Skipped>0</Skipped>
                          <Ignored>0</Ignored>
                          <Time />
                          <Message>Test successful

Execution time: 2,14ms</Message>
                          <ConsoleOutput>NHibernate: INSERT INTO Empresa (Designacao, Alvara, Telefone, Id) VALUES (?p0, ?p1, ?p2, ?p3);?p0 = 'EmpresaTeste' [Type: String (12)], ?p1 = '1111111' [Type: String (7)], ?p2 = '222223' [Type: String (6)], ?p3 = 9a67f8b1-8b28-4288-916d-a1d3011dcfb3 [Type: Guid (0)]
NHibernate: INSERT INTO Zona (Codigo, Designacao, Contigente, Id) VALUES (?p0, ?p1, ?p2, ?p3);?p0 = 'LSB' [Type: String (3)], ?p1 = 'Lisboa' [Type: String (6)], ?p2 = 100 [Type: Int32 (0)], ?p3 = 6539243a-2a5e-4727-8abc-a1d3011dcfb4 [Type: Guid (0)]
NHibernate: INSERT INTO Taxi (Matricula, Licenca, Lugares, Ano, EmpresaID, ZonaID, Id) VALUES (?p0, ?p1, ?p2, ?p3, ?p4, ?p5, ?p6);?p0 = '222-Teste' [Type: String (9)], ?p1 = 'licteste' [Type: String (8)], ?p2 = 4 [Type: Int32 (0)], ?p3 = 01-01-0001 00:00:00 [Type: DateTime (0)], ?p4 = 9a67f8b1-8b28-4288-916d-a1d3011dcfb3 [Type: Guid (0)], ?p5 = 6539243a-2a5e-4727-8abc-a1d3011dcfb4 [Type: Guid (0)], ?p6 = 918fb3a5-8928-4950-b3a1-a1d3011dcfb5 [Type: Guid (0)]
NHibernate: INSERT INTO User (UserName, PassWord, Nome, Idade, CAP, EmpresaID, UserType, Id) VALUES (?p0, ?p1, ?p2, ?p3, ?p4, ?p5, 'TaxiService.Domain.Entities.Taxista', ?p6);?p0 = 'ttaTeste' [Type: String (8)], ?p1 = '12345' [Type: String (5)], ?p2 = 'TaxistaTeste' [Type: String (12)], ?p3 = 10 [Type: Int32 (0)], ?p4 = '1224556' [Type: String (7)], ?p5 = 9a67f8b1-8b28-4288-916d-a1d3011dcfb3 [Type: Guid (0)], ?p6 = 5691762e-8c51-4297-ba2e-a1d3011dcfb6 [Type: Guid (0)]
NHibernate: INSERT INTO ServicoTaxi (InicioServico, FimServico, TaxiID, TaxistaID, Id) VALUES (?p0, ?p1, ?p2, ?p3, ?p4);?p0 = 04-06-2013 17:20:36 [Type: DateTime (0)], ?p1 = 01-01-0001 00:00:00 [Type: DateTime (0)], ?p2 = 918fb3a5-8928-4950-b3a1-a1d3011dcfb5 [Type: Guid (0)], ?p3 = 5691762e-8c51-4297-ba2e-a1d3011dcfb6 [Type: Guid (0)], ?p4 = 8e6bc3bf-56ea-4028-9920-a1d3011dcfb6 [Type: Guid (0)]
NHibernate: INSERT INTO User (UserName, PassWord, Nome, UserType, Id) VALUES (?p0, ?p1, ?p2, 'TaxiService.Domain.Entities.Utente', ?p3);?p0 = 'tutente' [Type: String (7)], ?p1 = '123457' [Type: String (6)], ?p2 = 'UtenteTeste' [Type: String (11)], ?p3 = 10ed1282-b69f-4069-97d1-a1d3011dcfb7 [Type: Guid (0)]
NHibernate: INSERT INTO TransporteTaxi (Avaliacao, Estado, UtenteID, ServicoTaxiID, Id) VALUES (?p0, ?p1, ?p2, ?p3, ?p4);?p0 = 5 [Type: Int32 (0)], ?p1 = 1 [Type: Int32 (0)], ?p2 = 10ed1282-b69f-4069-97d1-a1d3011dcfb7 [Type: Guid (0)], ?p3 = 8e6bc3bf-56ea-4028-9920-a1d3011dcfb6 [Type: Guid (0)], ?p4 = ceec6b19-4f49-4fd2-9a84-a1d3011dcfb8 [Type: Guid (0)]
NHibernate: SELECT this_.Id as Id5_0_, this_.Avaliacao as Avaliacao5_0_, this_.Estado as Estado5_0_, this_.UtenteID as UtenteID5_0_, this_.ServicoTaxiID as ServicoT5_5_0_ FROM TransporteTaxi this_
NHibernate: SELECT this_.Id as Id5_0_, this_.Avaliacao as Avaliacao5_0_, this_.Estado as Estado5_0_, this_.UtenteID as UtenteID5_0_, this_.ServicoTaxiID as ServicoT5_5_0_ FROM TransporteTaxi this_
</ConsoleOutput>
                          <ConsoleError />
                        </UnitTestResult>
                      </Results>
                    </TestRecord>
                    <TestRecord Name="remover_transporte_taxi_persistido">
                      <Results>
                        <UnitTestResult>
                          <TestDate>2013-06-04T17:19:27</TestDate>
                          <Passed>1</Passed>
                          <Errors>0</Errors>
                          <Failures>0</Failures>
                          <Inconclusive>0</Inconclusive>
                          <NotRunnable>0</NotRunnable>
                          <Skipped>0</Skipped>
                          <Ignored>0</Ignored>
                          <Time />
                          <Message>Test successful

Execution time: 2,29ms</Message>
                          <ConsoleOutput>NHibernate: INSERT INTO Empresa (Designacao, Alvara, Telefone, Id) VALUES (?p0, ?p1, ?p2, ?p3);?p0 = 'EmpresaTeste' [Type: String (12)], ?p1 = '1111111' [Type: String (7)], ?p2 = '222223' [Type: String (6)], ?p3 = 239f8762-dfda-40f6-a9c7-a1d3011dd261 [Type: Guid (0)]
NHibernate: INSERT INTO Zona (Codigo, Designacao, Contigente, Id) VALUES (?p0, ?p1, ?p2, ?p3);?p0 = 'LSB' [Type: String (3)], ?p1 = 'Lisboa' [Type: String (6)], ?p2 = 100 [Type: Int32 (0)], ?p3 = aa81a7be-622b-4eaa-a8dd-a1d3011dd262 [Type: Guid (0)]
NHibernate: INSERT INTO Taxi (Matricula, Licenca, Lugares, Ano, EmpresaID, ZonaID, Id) VALUES (?p0, ?p1, ?p2, ?p3, ?p4, ?p5, ?p6);?p0 = '222-Teste' [Type: String (9)], ?p1 = 'licteste' [Type: String (8)], ?p2 = 4 [Type: Int32 (0)], ?p3 = 01-01-0001 00:00:00 [Type: DateTime (0)], ?p4 = 239f8762-dfda-40f6-a9c7-a1d3011dd261 [Type: Guid (0)], ?p5 = aa81a7be-622b-4eaa-a8dd-a1d3011dd262 [Type: Guid (0)], ?p6 = 428e15bc-c13e-4fb0-b4df-a1d3011dd263 [Type: Guid (0)]
NHibernate: INSERT INTO User (UserName, PassWord, Nome, Idade, CAP, EmpresaID, UserType, Id) VALUES (?p0, ?p1, ?p2, ?p3, ?p4, ?p5, 'TaxiService.Domain.Entities.Taxista', ?p6);?p0 = 'ttaTeste' [Type: String (8)], ?p1 = '12345' [Type: String (5)], ?p2 = 'TaxistaTeste' [Type: String (12)], ?p3 = 10 [Type: Int32 (0)], ?p4 = '1224556' [Type: String (7)], ?p5 = 239f8762-dfda-40f6-a9c7-a1d3011dd261 [Type: Guid (0)], ?p6 = a35d6cdd-638a-4ced-9b47-a1d3011dd264 [Type: Guid (0)]
NHibernate: INSERT INTO ServicoTaxi (InicioServico, FimServico, TaxiID, TaxistaID, Id) VALUES (?p0, ?p1, ?p2, ?p3, ?p4);?p0 = 04-06-2013 17:20:38 [Type: DateTime (0)], ?p1 = 01-01-0001 00:00:00 [Type: DateTime (0)], ?p2 = 428e15bc-c13e-4fb0-b4df-a1d3011dd263 [Type: Guid (0)], ?p3 = a35d6cdd-638a-4ced-9b47-a1d3011dd264 [Type: Guid (0)], ?p4 = 903c4276-db1e-4ad2-965f-a1d3011dd264 [Type: Guid (0)]
NHibernate: INSERT INTO User (UserName, PassWord, Nome, UserType, Id) VALUES (?p0, ?p1, ?p2, 'TaxiService.Domain.Entities.Utente', ?p3);?p0 = 'tutente' [Type: String (7)], ?p1 = '123457' [Type: String (6)], ?p2 = 'UtenteTeste' [Type: String (11)], ?p3 = 205e2135-cfc7-4e05-b636-a1d3011dd265 [Type: Guid (0)]
NHibernate: INSERT INTO TransporteTaxi (Avaliacao, Estado, UtenteID, ServicoTaxiID, Id) VALUES (?p0, ?p1, ?p2, ?p3, ?p4);?p0 = 5 [Type: Int32 (0)], ?p1 = 1 [Type: Int32 (0)], ?p2 = 205e2135-cfc7-4e05-b636-a1d3011dd265 [Type: Guid (0)], ?p3 = 903c4276-db1e-4ad2-965f-a1d3011dd264 [Type: Guid (0)], ?p4 = 27bdd8d7-c1e4-4c49-a456-a1d3011dd265 [Type: Guid (0)]
NHibernate: SELECT this_.Id as Id5_0_, this_.Avaliacao as Avaliacao5_0_, this_.Estado as Estado5_0_, this_.UtenteID as UtenteID5_0_, this_.ServicoTaxiID as ServicoT5_5_0_ FROM TransporteTaxi this_
NHibernate: DELETE FROM TransporteTaxi WHERE Id = ?p0;?p0 = 27bdd8d7-c1e4-4c49-a456-a1d3011dd265 [Type: Guid (0)]
NHibernate: SELECT this_.Id as Id5_0_, this_.Avaliacao as Avaliacao5_0_, this_.Estado as Estado5_0_, this_.UtenteID as UtenteID5_0_, this_.ServicoTaxiID as ServicoT5_5_0_ FROM TransporteTaxi this_
NHibernate: SELECT transporte0_.Id as Id5_0_, transporte0_.Avaliacao as Avaliacao5_0_, transporte0_.Estado as Estado5_0_, transporte0_.UtenteID as UtenteID5_0_, transporte0_.ServicoTaxiID as ServicoT5_5_0_ FROM TransporteTaxi transporte0_ WHERE transporte0_.Id=?p0;?p0 = 27bdd8d7-c1e4-4c49-a456-a1d3011dd265 [Type: Guid (0)]
</ConsoleOutput>
                          <ConsoleError />
                        </UnitTestResult>
                      </Results>
                    </TestRecord>
                  </Tests>
                </TestRecord>
                <TestRecord Name="NHUtenteRepositoryTest">
                  <Results>
                    <UnitTestResult>
                      <TestDate>2013-06-04T17:19:27</TestDate>
                      <Passed>5</Passed>
                      <Errors>0</Errors>
                      <Failures>0</Failures>
                      <Inconclusive>0</Inconclusive>
                      <NotRunnable>0</NotRunnable>
                      <Skipped>0</Skipped>
                      <Ignored>0</Ignored>
                      <Time />
                      <Message>Test successful

Execution time: 11,03ms</Message>
                    </UnitTestResult>
                  </Results>
                  <Tests>
                    <TestRecord Name="actualizar_propriedade_utente">
                      <Results>
                        <UnitTestResult>
                          <TestDate>2013-06-04T17:19:27</TestDate>
                          <Passed>1</Passed>
                          <Errors>0</Errors>
                          <Failures>0</Failures>
                          <Inconclusive>0</Inconclusive>
                          <NotRunnable>0</NotRunnable>
                          <Skipped>0</Skipped>
                          <Ignored>0</Ignored>
                          <Time />
                          <Message>Test successful

Execution time: 2,17ms</Message>
                          <ConsoleOutput>NHibernate: INSERT INTO User (UserName, PassWord, Nome, UserType, Id) VALUES (?p0, ?p1, ?p2, 'TaxiService.Domain.Entities.Utente', ?p3);?p0 = 'userTeste' [Type: String (9)], ?p1 = '12345' [Type: String (5)], ?p2 = NULL [Type: String (0)], ?p3 = 056d923c-3b30-49bf-a2b4-a1d3011dd4ee [Type: Guid (0)]
NHibernate: SELECT this_.Id as Id1_0_, this_.UserName as UserName1_0_, this_.PassWord as PassWord1_0_, this_.Nome as Nome1_0_ FROM User this_ WHERE this_.UserType='TaxiService.Domain.Entities.Utente'
NHibernate: UPDATE User SET PassWord = ?p0, Nome = ?p1 WHERE Id = ?p2;?p0 = '3333' [Type: String (4)], ?p1 = 'User de Teste' [Type: String (13)], ?p2 = 056d923c-3b30-49bf-a2b4-a1d3011dd4ee [Type: Guid (0)]
NHibernate: SELECT utente0_.Id as Id1_0_, utente0_.UserName as UserName1_0_, utente0_.PassWord as PassWord1_0_, utente0_.Nome as Nome1_0_ FROM User utente0_ WHERE utente0_.Id=?p0 and utente0_.UserType='TaxiService.Domain.Entities.Utente';?p0 = 056d923c-3b30-49bf-a2b4-a1d3011dd4ee [Type: Guid (0)]
NHibernate: SELECT this_.Id as Id1_0_, this_.UserName as UserName1_0_, this_.PassWord as PassWord1_0_, this_.Nome as Nome1_0_ FROM User this_ WHERE this_.UserType='TaxiService.Domain.Entities.Utente'
</ConsoleOutput>
                          <ConsoleError />
                        </UnitTestResult>
                      </Results>
                    </TestRecord>
                    <TestRecord Name="eliminar_utente_da_bd">
                      <Results>
                        <UnitTestResult>
                          <TestDate>2013-06-04T17:19:27</TestDate>
                          <Passed>1</Passed>
                          <Errors>0</Errors>
                          <Failures>0</Failures>
                          <Inconclusive>0</Inconclusive>
                          <NotRunnable>0</NotRunnable>
                          <Skipped>0</Skipped>
                          <Ignored>0</Ignored>
                          <Time />
                          <Message>Test successful

Execution time: 2,14ms</Message>
                          <ConsoleOutput>NHibernate: INSERT INTO User (UserName, PassWord, Nome, UserType, Id) VALUES (?p0, ?p1, ?p2, 'TaxiService.Domain.Entities.Utente', ?p3);?p0 = 'userTeste' [Type: String (9)], ?p1 = '12345' [Type: String (5)], ?p2 = NULL [Type: String (0)], ?p3 = 9f039569-41c7-46fb-90c4-a1d3011dd774 [Type: Guid (0)]
NHibernate: SELECT this_.Id as Id1_0_, this_.UserName as UserName1_0_, this_.PassWord as PassWord1_0_, this_.Nome as Nome1_0_ FROM User this_ WHERE this_.UserType='TaxiService.Domain.Entities.Utente'
NHibernate: DELETE FROM User WHERE Id = ?p0;?p0 = 9f039569-41c7-46fb-90c4-a1d3011dd774 [Type: Guid (0)]
NHibernate: SELECT this_.Id as Id1_0_, this_.UserName as UserName1_0_, this_.PassWord as PassWord1_0_, this_.Nome as Nome1_0_ FROM User this_ WHERE this_.UserType='TaxiService.Domain.Entities.Utente'
NHibernate: SELECT utente0_.Id as Id1_0_, utente0_.UserName as UserName1_0_, utente0_.PassWord as PassWord1_0_, utente0_.Nome as Nome1_0_ FROM User utente0_ WHERE utente0_.Id=?p0 and utente0_.UserType='TaxiService.Domain.Entities.Utente';?p0 = 9f039569-41c7-46fb-90c4-a1d3011dd774 [Type: Guid (0)]
</ConsoleOutput>
                          <ConsoleError />
                        </UnitTestResult>
                      </Results>
                    </TestRecord>
                    <TestRecord Name="erro_ao_persistir_utente_duplicados">
                      <Results>
                        <UnitTestResult>
                          <TestDate>2013-06-04T17:19:27</TestDate>
                          <Passed>1</Passed>
                          <Errors>0</Errors>
                          <Failures>0</Failures>
                          <Inconclusive>0</Inconclusive>
                          <NotRunnable>0</NotRunnable>
                          <Skipped>0</Skipped>
                          <Ignored>0</Ignored>
                          <Time />
                          <Message>Test successful

Execution time: 2,18ms</Message>
                          <ConsoleOutput>NHibernate: INSERT INTO User (UserName, PassWord, Nome, UserType, Id) VALUES (?p0, ?p1, ?p2, 'TaxiService.Domain.Entities.Utente', ?p3);?p0 = 'userTeste' [Type: String (9)], ?p1 = '12345' [Type: String (5)], ?p2 = NULL [Type: String (0)], ?p3 = 9b4a341f-b4dd-4af7-934f-a1d3011dda03 [Type: Guid (0)]
NHibernate: INSERT INTO User (UserName, PassWord, Nome, UserType, Id) VALUES (?p0, ?p1, ?p2, 'TaxiService.Domain.Entities.Utente', ?p3);?p0 = 'userTeste' [Type: String (9)], ?p1 = '12345' [Type: String (5)], ?p2 = NULL [Type: String (0)], ?p3 = 2199fae0-c372-4761-ad37-a1d3011dda04 [Type: Guid (0)]
</ConsoleOutput>
                          <ConsoleError />
                        </UnitTestResult>
                      </Results>
                    </TestRecord>
                    <TestRecord Name="erro_ao_persistir_utente_sem_dados">
                      <Results>
                        <UnitTestResult>
                          <TestDate>2013-06-04T17:19:27</TestDate>
                          <Passed>1</Passed>
                          <Errors>0</Errors>
                          <Failures>0</Failures>
                          <Inconclusive>0</Inconclusive>
                          <NotRunnable>0</NotRunnable>
                          <Skipped>0</Skipped>
                          <Ignored>0</Ignored>
                          <Time />
                          <Message>Test successful

Execution time: 2,26ms</Message>
                          <ConsoleOutput />
                          <ConsoleError />
                        </UnitTestResult>
                      </Results>
                    </TestRecord>
                    <TestRecord Name="persistir_nova_entidade_utente">
                      <Results>
                        <UnitTestResult>
                          <TestDate>2013-06-04T17:19:27</TestDate>
                          <Passed>1</Passed>
                          <Errors>0</Errors>
                          <Failures>0</Failures>
                          <Inconclusive>0</Inconclusive>
                          <NotRunnable>0</NotRunnable>
                          <Skipped>0</Skipped>
                          <Ignored>0</Ignored>
                          <Time />
                          <Message>Test successful

Execution time: 2,28ms</Message>
                          <ConsoleOutput>NHibernate: SELECT this_.Id as Id1_0_, this_.UserName as UserName1_0_, this_.PassWord as PassWord1_0_, this_.Nome as Nome1_0_ FROM User this_ WHERE this_.UserType='TaxiService.Domain.Entities.Utente'
NHibernate: INSERT INTO User (UserName, PassWord, Nome, UserType, Id) VALUES (?p0, ?p1, ?p2, 'TaxiService.Domain.Entities.Utente', ?p3);?p0 = 'userTeste' [Type: String (9)], ?p1 = '12345' [Type: String (5)], ?p2 = NULL [Type: String (0)], ?p3 = 848d94e0-7030-4aab-a869-a1d3011ddf56 [Type: Guid (0)]
NHibernate: SELECT this_.Id as Id1_0_, this_.UserName as UserName1_0_, this_.PassWord as PassWord1_0_, this_.Nome as Nome1_0_ FROM User this_ WHERE this_.UserType='TaxiService.Domain.Entities.Utente'
</ConsoleOutput>
                          <ConsoleError />
                        </UnitTestResult>
                      </Results>
                    </TestRecord>
                  </Tests>
                </TestRecord>
                <TestRecord Name="NHZonaRepositoryTest">
                  <Results>
                    <UnitTestResult>
                      <TestDate>2013-06-04T17:19:27</TestDate>
                      <Passed>3</Passed>
                      <Errors>0</Errors>
                      <Failures>0</Failures>
                      <Inconclusive>0</Inconclusive>
                      <NotRunnable>0</NotRunnable>
                      <Skipped>0</Skipped>
                      <Ignored>0</Ignored>
                      <Time />
                      <Message>Test successful

Execution time: 7,37ms</Message>
                    </UnitTestResult>
                  </Results>
                  <Tests>
                    <TestRecord Name="actualizar_propriedades_zona">
                      <Results>
                        <UnitTestResult>
                          <TestDate>2013-06-04T17:19:27</TestDate>
                          <Passed>1</Passed>
                          <Errors>0</Errors>
                          <Failures>0</Failures>
                          <Inconclusive>0</Inconclusive>
                          <NotRunnable>0</NotRunnable>
                          <Skipped>0</Skipped>
                          <Ignored>0</Ignored>
                          <Time />
                          <Message>Test successful

Execution time: 2,21ms</Message>
                          <ConsoleOutput>NHibernate: INSERT INTO Zona (Codigo, Designacao, Contigente, Id) VALUES (?p0, ?p1, ?p2, ?p3);?p0 = 'LSB' [Type: String (3)], ?p1 = 'Lisboa' [Type: String (6)], ?p2 = 100 [Type: Int32 (0)], ?p3 = f99a5515-08bc-4e0d-a8a5-a1d3011de1ec [Type: Guid (0)]
NHibernate: SELECT this_.Id as Id3_0_, this_.Codigo as Codigo3_0_, this_.Designacao as Designacao3_0_, this_.Contigente as Contigente3_0_ FROM Zona this_
NHibernate: UPDATE Zona SET Codigo = ?p0, Designacao = ?p1, Contigente = ?p2 WHERE Id = ?p3;?p0 = 'LSB' [Type: String (3)], ?p1 = 'Lisboa' [Type: String (6)], ?p2 = 500 [Type: Int32 (0)], ?p3 = f99a5515-08bc-4e0d-a8a5-a1d3011de1ec [Type: Guid (0)]
NHibernate: SELECT this_.Id as Id3_0_, this_.Codigo as Codigo3_0_, this_.Designacao as Designacao3_0_, this_.Contigente as Contigente3_0_ FROM Zona this_
</ConsoleOutput>
                          <ConsoleError />
                        </UnitTestResult>
                      </Results>
                    </TestRecord>
                    <TestRecord Name="inserir_nova_zona">
                      <Results>
                        <UnitTestResult>
                          <TestDate>2013-06-04T17:19:27</TestDate>
                          <Passed>1</Passed>
                          <Errors>0</Errors>
                          <Failures>0</Failures>
                          <Inconclusive>0</Inconclusive>
                          <NotRunnable>0</NotRunnable>
                          <Skipped>0</Skipped>
                          <Ignored>0</Ignored>
                          <Time />
                          <Message>Test successful

Execution time: 2,53ms</Message>
                          <ConsoleOutput>NHibernate: SELECT this_.Id as Id3_0_, this_.Codigo as Codigo3_0_, this_.Designacao as Designacao3_0_, this_.Contigente as Contigente3_0_ FROM Zona this_
NHibernate: INSERT INTO Zona (Codigo, Designacao, Contigente, Id) VALUES (?p0, ?p1, ?p2, ?p3);?p0 = 'LSB' [Type: String (3)], ?p1 = 'Lisboa' [Type: String (6)], ?p2 = 100 [Type: Int32 (0)], ?p3 = 78607b33-6975-4efc-bd26-a1d3011de4e9 [Type: Guid (0)]
NHibernate: SELECT this_.Id as Id3_0_, this_.Codigo as Codigo3_0_, this_.Designacao as Designacao3_0_, this_.Contigente as Contigente3_0_ FROM Zona this_
</ConsoleOutput>
                          <ConsoleError />
                        </UnitTestResult>
                      </Results>
                    </TestRecord>
                    <TestRecord Name="remover_zona_persistida">
                      <Results>
                        <UnitTestResult>
                          <TestDate>2013-06-04T17:19:27</TestDate>
                          <Passed>1</Passed>
                          <Errors>0</Errors>
                          <Failures>0</Failures>
                          <Inconclusive>0</Inconclusive>
                          <NotRunnable>0</NotRunnable>
                          <Skipped>0</Skipped>
                          <Ignored>0</Ignored>
                          <Time />
                          <Message>Test successful

Execution time: 2,61ms</Message>
                          <ConsoleOutput>NHibernate: INSERT INTO Zona (Codigo, Designacao, Contigente, Id) VALUES (?p0, ?p1, ?p2, ?p3);?p0 = 'LSB' [Type: String (3)], ?p1 = 'Lisboa' [Type: String (6)], ?p2 = 100 [Type: Int32 (0)], ?p3 = 527fe4e3-2cd6-46e2-9dcf-a1d3011de7f8 [Type: Guid (0)]
NHibernate: SELECT this_.Id as Id3_0_, this_.Codigo as Codigo3_0_, this_.Designacao as Designacao3_0_, this_.Contigente as Contigente3_0_ FROM Zona this_
NHibernate: DELETE FROM Zona WHERE Id = ?p0;?p0 = 527fe4e3-2cd6-46e2-9dcf-a1d3011de7f8 [Type: Guid (0)]
NHibernate: SELECT this_.Id as Id3_0_, this_.Codigo as Codigo3_0_, this_.Designacao as Designacao3_0_, this_.Contigente as Contigente3_0_ FROM Zona this_
NHibernate: SELECT zona0_.Id as Id3_0_, zona0_.Codigo as Codigo3_0_, zona0_.Designacao as Designacao3_0_, zona0_.Contigente as Contigente3_0_ FROM Zona zona0_ WHERE zona0_.Id=?p0;?p0 = 527fe4e3-2cd6-46e2-9dcf-a1d3011de7f8 [Type: Guid (0)]
</ConsoleOutput>
                          <ConsoleError />
                        </UnitTestResult>
                      </Results>
                    </TestRecord>
                  </Tests>
                </TestRecord>
              </Tests>
            </TestRecord>
          </Tests>
        </TestRecord>
      </Tests>
    </TestRecord>
  </Tests>
</TestRecord>